Record Length,2.500000e+03,,  -0.000624000000,  -0.00080,
Sample Interval,4.000000e-07,,  -0.000623600000,   0.00000,
Trigger Point,1.560000000000e+03,,  -0.000623200000,  -0.00240,
,,,  -0.000622800000,  -0.00120,
,,,  -0.000622400000,  -0.00200,
,,,  -0.000622000000,  -0.00120,
Source,CH3,,  -0.000621600000,  -0.00080,
Vertical Units,V,,  -0.000621200000,  -0.00080,
Vertical Scale,1.000000e-02,,  -0.000620800000,   0.00040,
Vertical Offset,-2.800000e-03,,  -0.000620400000,  -0.00040,
Horizontal Units,s,,  -0.000620000000,  -0.00040,
Horizontal Scale,1.000000e-04,,  -0.000619600000,  -0.00120,
Pt Fmt,Y,,  -0.000619200000,  -0.00080,
Yzero,0.000000e+00,,  -0.000618800000,   0.00040,
Probe Atten,1.000000e+00,,  -0.000618400000,  -0.00160,
Model Number,TDS2004B,,  -0.000618000000,  -0.00240,
Serial Number,C020253,,  -0.000617600000,  -0.00320,
Firmware Version,FV:v21.20,,  -0.000617200000,  -0.00200,
,,,-00.000616800000,  -0.00200,
,,,-00.000616400000,  -0.00200,
,,,-00.000616000000,   0.00000,
,,,-00.000615600000,  -0.00040,
,,,-00.000615200000,  -0.00120,
,,,-00.000614800000,  -0.00240,
,,,-00.000614400000,  -0.00040,
,,,-00.000614000000,   0.00000,
,,,-00.000613600000,  -0.00040,
,,,-00.000613200000,   0.00000,
,,,-00.000612800000,  -0.00080,
,,,-00.000612400000,  -0.00200,
,,,-00.000612000000,  -0.00200,
,,,-00.000611600000,  -0.00040,
,,,-00.000611200000,   0.00120,
,,,-00.000610800000,  -0.00160,
,,,-00.000610400000,  -0.00280,
,,,-00.000610000000,  -0.00240,
,,,-00.000609600000,  -0.00160,
,,,-00.000609200000,   0.00000,
,,,-00.000608800000,  -0.00320,
,,,-00.000608400000,  -0.00040,
,,,-00.000608000000,  -0.00120,
,,,-00.000607600000,  -0.00080,
,,,-00.000607200000,  -0.00360,
,,,-00.000606800000,  -0.00280,
,,,-00.000606400000,   0.00160,
,,,-00.000606000000,  -0.00240,
,,,-00.000605600000,   0.00000,
,,,-00.000605200000,  -0.00360,
,,,-00.000604800000,   0.00000,
,,,-00.000604400000,  -0.00280,
,,,-00.000604000000,  -0.00240,
,,,-00.000603600000,  -0.00040,
,,,-00.000603200000,  -0.00080,
,,,-00.000602800000,  -0.00040,
,,,-00.000602400000,  -0.00120,
,,,-00.000602000000,  -0.00040,
,,,-00.000601600000,  -0.00080,
,,,-00.000601200000,  -0.00320,
,,,-00.000600800000,   0.00040,
,,,-00.000600400000,  -0.00240,
,,,-00.000600000000,  -0.00040,
,,,-00.000599600000,  -0.00240,
,,,-00.000599200000,  -0.00200,
,,,-00.000598800000,   0.00160,
,,,-00.000598400000,  -0.00200,
,,,-00.000598000000,  -0.00200,
,,,-00.000597600000,  -0.00320,
,,,-00.000597200000,   0.00000,
,,,-00.000596800000,   0.00080,
,,,-00.000596400000,  -0.00120,
,,,-00.000596000000,   0.00120,
,,,-00.000595600000,  -0.00120,
,,,-00.000595200000,  -0.00080,
,,,-00.000594800000,  -0.00400,
,,,-00.000594400000,  -0.00160,
,,,-00.000594000000,  -0.00040,
,,,-00.000593600000,  -0.00120,
,,,-00.000593200000,  -0.00080,
,,,-00.000592800000,  -0.00120,
,,,-00.000592400000,  -0.00040,
,,,-00.000592000000,  -0.00200,
,,,-00.000591600000,  -0.00160,
,,,-00.000591200000,  -0.00080,
,,,-00.000590800000,  -0.00200,
,,,-00.000590400000,  -0.00200,
,,,-00.000590000000,  -0.00280,
,,,-00.000589600000,  -0.00120,
,,,-00.000589200000,  -0.00120,
,,,-00.000588800000,  -0.00080,
,,,-00.000588400000,   0.00080,
,,,-00.000588000000,  -0.00120,
,,,-00.000587600000,  -0.00200,
,,,-00.000587200000,  -0.00200,
,,,-00.000586800000,  -0.00240,
,,,-00.000586400000,  -0.00080,
,,,-00.000586000000,  -0.00080,
,,,-00.000585600000,  -0.00040,
,,,-00.000585200000,  -0.00360,
,,,-00.000584800000,  -0.00200,
,,,-00.000584400000,  -0.00080,
,,,-00.000584000000,  -0.00120,
,,,-00.000583600000,  -0.00120,
,,,-00.000583200000,  -0.00080,
,,,-00.000582800000,   0.00040,
,,,-00.000582400000,  -0.00240,
,,,-00.000582000000,   0.00040,
,,,-00.000581600000,  -0.00200,
,,,-00.000581200000,  -0.00280,
,,,-00.000580800000,   0.00120,
,,,-00.000580400000,  -0.00040,
,,,-00.000580000000,  -0.00120,
,,,-00.000579600000,  -0.00360,
,,,-00.000579200000,   0.00120,
,,,-00.000578800000,   0.00160,
,,,-00.000578400000,   0.00000,
,,,-00.000578000000,  -0.00040,
,,,-00.000577600000,  -0.00240,
,,,-00.000577200000,   0.00120,
,,,-00.000576800000,   0.00080,
,,,-00.000576400000,  -0.00480,
,,,-00.000576000000,   0.00080,
,,,-00.000575600000,  -0.00320,
,,,-00.000575200000,  -0.00240,
,,,-00.000574800000,  -0.00280,
,,,-00.000574400000,  -0.00160,
,,,-00.000574000000,  -0.00160,
,,,-00.000573600000,  -0.00040,
,,,-00.000573200000,   0.00080,
,,,-00.000572800000,  -0.00200,
,,,-00.000572400000,  -0.00080,
,,,-00.000572000000,  -0.00120,
,,,-00.000571600000,  -0.00200,
,,,-00.000571200000,  -0.00080,
,,,-00.000570800000,  -0.00200,
,,,-00.000570400000,  -0.00120,
,,,-00.000570000000,  -0.00240,
,,,-00.000569600000,  -0.00160,
,,,-00.000569200000,  -0.00160,
,,,-00.000568800000,  -0.00200,
,,,-00.000568400000,   0.00000,
,,,-00.000568000000,  -0.00160,
,,,-00.000567600000,   0.00040,
,,,-00.000567200000,  -0.00360,
,,,-00.000566800000,  -0.00240,
,,,-00.000566400000,   0.00080,
,,,-00.000566000000,  -0.00120,
,,,-00.000565600000,  -0.00200,
,,,-00.000565200000,  -0.00200,
,,,-00.000564800000,  -0.00120,
,,,-00.000564400000,  -0.00200,
,,,-00.000564000000,  -0.00240,
,,,-00.000563600000,   0.00240,
,,,-00.000563200000,  -0.00160,
,,,-00.000562800000,  -0.00080,
,,,-00.000562400000,  -0.00240,
,,,-00.000562000000,  -0.00240,
,,,-00.000561600000,  -0.00040,
,,,-00.000561200000,  -0.00200,
,,,-00.000560800000,  -0.00160,
,,,-00.000560400000,  -0.00160,
,,,-00.000560000000,  -0.00160,
,,,-00.000559600000,  -0.00160,
,,,-00.000559200000,  -0.00200,
,,,-00.000558800000,   0.00040,
,,,-00.000558400000,  -0.00240,
,,,-00.000558000000,  -0.00040,
,,,-00.000557600000,  -0.00160,
,,,-00.000557200000,  -0.00160,
,,,-00.000556800000,  -0.00360,
,,,-00.000556400000,  -0.00280,
,,,-00.000556000000,  -0.00040,
,,,-00.000555600000,  -0.00040,
,,,-00.000555200000,  -0.00040,
,,,-00.000554800000,  -0.00080,
,,,-00.000554400000,   0.00000,
,,,-00.000554000000,  -0.00080,
,,,-00.000553600000,  -0.00200,
,,,-00.000553200000,  -0.00040,
,,,-00.000552800000,  -0.00240,
,,,-00.000552400000,  -0.00080,
,,,-00.000552000000,  -0.00280,
,,,-00.000551600000,  -0.00200,
,,,-00.000551200000,   0.00080,
,,,-00.000550800000,  -0.00160,
,,,-00.000550400000,  -0.00240,
,,,-00.000550000000,  -0.00480,
,,,-00.000549600000,  -0.00160,
,,,-00.000549200000,  -0.00360,
,,,-00.000548800000,  -0.00200,
,,,-00.000548400000,   0.00040,
,,,-00.000548000000,  -0.00160,
,,,-00.000547600000,  -0.00240,
,,,-00.000547200000,  -0.00120,
,,,-00.000546800000,  -0.00320,
,,,-00.000546400000,   0.00080,
,,,-00.000546000000,  -0.00240,
,,,-00.000545600000,   0.00040,
,,,-00.000545200000,  -0.00120,
,,,-00.000544800000,  -0.00040,
,,,-00.000544400000,  -0.00320,
,,,-00.000544000000,  -0.00040,
,,,-00.000543600000,   0.00160,
,,,-00.000543200000,  -0.00080,
,,,-00.000542800000,  -0.00120,
,,,-00.000542400000,  -0.00280,
,,,-00.000542000000,  -0.00040,
,,,-00.000541600000,  -0.00040,
,,,-00.000541200000,  -0.00240,
,,,-00.000540800000,   0.00040,
,,,-00.000540400000,  -0.00200,
,,,-00.000540000000,  -0.00040,
,,,-00.000539600000,  -0.00120,
,,,-00.000539200000,  -0.00360,
,,,-00.000538800000,   0.00120,
,,,-00.000538400000,  -0.00200,
,,,-00.000538000000,   0.00040,
,,,-00.000537600000,  -0.00240,
,,,-00.000537200000,  -0.00160,
,,,-00.000536800000,  -0.00080,
,,,-00.000536400000,  -0.00040,
,,,-00.000536000000,   0.00280,
,,,-00.000535600000,  -0.00120,
,,,-00.000535200000,  -0.00080,
,,,-00.000534800000,  -0.00160,
,,,-00.000534400000,  -0.00040,
,,,-00.000534000000,  -0.00160,
,,,-00.000533600000,  -0.00200,
,,,-00.000533200000,   0.00040,
,,,-00.000532800000,  -0.00120,
,,,-00.000532400000,  -0.00040,
,,,-00.000532000000,  -0.00120,
,,,-00.000531600000,   0.00080,
,,,-00.000531200000,  -0.00160,
,,,-00.000530800000,  -0.00120,
,,,-00.000530400000,  -0.00160,
,,,-00.000530000000,  -0.00320,
,,,-00.000529600000,  -0.00160,
,,,-00.000529200000,  -0.00080,
,,,-00.000528800000,  -0.00160,
,,,-00.000528400000,  -0.00040,
,,,-00.000528000000,  -0.00320,
,,,-00.000527600000,   0.00000,
,,,-00.000527200000,  -0.00240,
,,,-00.000526800000,  -0.00280,
,,,-00.000526400000,  -0.00120,
,,,-00.000526000000,  -0.00200,
,,,-00.000525600000,  -0.00080,
,,,-00.000525200000,  -0.00240,
,,,-00.000524800000,  -0.00040,
,,,-00.000524400000,  -0.00120,
,,,-00.000524000000,  -0.00080,
,,,-00.000523600000,   0.00000,
,,,-00.000523200000,  -0.00240,
,,,-00.000522800000,  -0.00240,
,,,-00.000522400000,  -0.00240,
,,,-00.000522000000,   0.00000,
,,,-00.000521600000,   0.00000,
,,,-00.000521200000,  -0.00360,
,,,-00.000520800000,   0.00000,
,,,-00.000520400000,  -0.00240,
,,,-00.000520000000,  -0.00160,
,,,-00.000519600000,  -0.00160,
,,,-00.000519200000,  -0.00200,
,,,-00.000518800000,  -0.00240,
,,,-00.000518400000,  -0.00400,
,,,-00.000518000000,  -0.00080,
,,,-00.000517600000,  -0.00160,
,,,-00.000517200000,  -0.00120,
,,,-00.000516800000,  -0.00200,
,,,-00.000516400000,  -0.00400,
,,,-00.000516000000,   0.00040,
,,,-00.000515600000,  -0.00120,
,,,-00.000515200000,  -0.00080,
,,,-00.000514800000,  -0.00240,
,,,-00.000514400000,  -0.00160,
,,,-00.000514000000,  -0.00120,
,,,-00.000513600000,  -0.00200,
,,,-00.000513200000,   0.00000,
,,,-00.000512800000,  -0.00160,
,,,-00.000512400000,   0.00000,
,,,-00.000512000000,  -0.00160,
,,,-00.000511600000,  -0.00240,
,,,-00.000511200000,   0.00000,
,,,-00.000510800000,  -0.00120,
,,,-00.000510400000,  -0.00240,
,,,-00.000510000000,  -0.00280,
,,,-00.000509600000,  -0.00200,
,,,-00.000509200000,  -0.00160,
,,,-00.000508800000,  -0.00120,
,,,-00.000508400000,   0.00160,
,,,-00.000508000000,  -0.00160,
,,,-00.000507600000,  -0.00120,
,,,-00.000507200000,  -0.00240,
,,,-00.000506800000,  -0.00240,
,,,-00.000506400000,  -0.00120,
,,,-00.000506000000,   0.00000,
,,,-00.000505600000,   0.00040,
,,,-00.000505200000,  -0.00240,
,,,-00.000504800000,  -0.00040,
,,,-00.000504400000,  -0.00120,
,,,-00.000504000000,  -0.00280,
,,,-00.000503600000,   0.00040,
,,,-00.000503200000,  -0.00200,
,,,-00.000502800000,  -0.00280,
,,,-00.000502400000,  -0.00200,
,,,-00.000502000000,  -0.00240,
,,,-00.000501600000,  -0.00280,
,,,-00.000501200000,  -0.00120,
,,,-00.000500800000,   0.00120,
,,,-00.000500400000,  -0.00080,
,,,-00.000500000000,  -0.00160,
,,,-00.000499600000,  -0.00040,
,,,-00.000499200000,  -0.00200,
,,,-00.000498800000,   0.00240,
,,,-00.000498400000,  -0.00120,
,,,-00.000498000000,  -0.00200,
,,,-00.000497600000,  -0.00280,
,,,-00.000497200000,  -0.00120,
,,,-00.000496800000,  -0.00200,
,,,-00.000496400000,  -0.00280,
,,,-00.000496000000,   0.00040,
,,,-00.000495600000,  -0.00200,
,,,-00.000495200000,  -0.00240,
,,,-00.000494800000,  -0.00280,
,,,-00.000494400000,  -0.00120,
,,,-00.000494000000,  -0.00160,
,,,-00.000493600000,  -0.00280,
,,,-00.000493200000,  -0.00040,
,,,-00.000492800000,  -0.00240,
,,,-00.000492400000,  -0.00080,
,,,-00.000492000000,  -0.00640,
,,,-00.000491600000,  -0.00240,
,,,-00.000491200000,  -0.00160,
,,,-00.000490800000,  -0.00280,
,,,-00.000490400000,  -0.00120,
,,,-00.000490000000,  -0.00040,
,,,-00.000489600000,  -0.00080,
,,,-00.000489200000,   0.00000,
,,,-00.000488800000,  -0.00160,
,,,-00.000488400000,   0.00040,
,,,-00.000488000000,   0.00120,
,,,-00.000487600000,  -0.00120,
,,,-00.000487200000,  -0.00280,
,,,-00.000486800000,  -0.00280,
,,,-00.000486400000,   0.00000,
,,,-00.000486000000,  -0.00320,
,,,-00.000485600000,   0.00080,
,,,-00.000485200000,  -0.00280,
,,,-00.000484800000,  -0.00040,
,,,-00.000484400000,  -0.00320,
,,,-00.000484000000,  -0.00200,
,,,-00.000483600000,   0.00120,
,,,-00.000483200000,  -0.00080,
,,,-00.000482800000,  -0.00160,
,,,-00.000482400000,  -0.00360,
,,,-00.000482000000,   0.00040,
,,,-00.000481600000,  -0.00280,
,,,-00.000481200000,  -0.00320,
,,,-00.000480800000,   0.00160,
,,,-00.000480400000,  -0.00120,
,,,-00.000480000000,  -0.00240,
,,,-00.000479600000,   0.00000,
,,,-00.000479200000,  -0.00240,
,,,-00.000478800000,  -0.00120,
,,,-00.000478400000,  -0.00400,
,,,-00.000478000000,   0.00000,
,,,-00.000477600000,  -0.00200,
,,,-00.000477200000,  -0.00160,
,,,-00.000476800000,  -0.00160,
,,,-00.000476400000,  -0.00240,
,,,-00.000476000000,   0.00040,
,,,-00.000475600000,  -0.00160,
,,,-00.000475200000,  -0.00160,
,,,-00.000474800000,  -0.00200,
,,,-00.000474400000,  -0.00160,
,,,-00.000474000000,   0.00080,
,,,-00.000473600000,  -0.00240,
,,,-00.000473200000,   0.00120,
,,,-00.000472800000,   0.00040,
,,,-00.000472400000,   0.00080,
,,,-00.000472000000,  -0.00280,
,,,-00.000471600000,  -0.00240,
,,,-00.000471200000,   0.00000,
,,,-00.000470800000,  -0.00240,
,,,-00.000470400000,  -0.00320,
,,,-00.000470000000,  -0.00160,
,,,-00.000469600000,  -0.00280,
,,,-00.000469200000,  -0.00160,
,,,-00.000468800000,  -0.00040,
,,,-00.000468400000,   0.00080,
,,,-00.000468000000,  -0.00160,
,,,-00.000467600000,   0.00040,
,,,-00.000467200000,  -0.00280,
,,,-00.000466800000,  -0.00080,
,,,-00.000466400000,   0.00120,
,,,-00.000466000000,  -0.00200,
,,,-00.000465600000,   0.00000,
,,,-00.000465200000,  -0.00200,
,,,-00.000464800000,  -0.00080,
,,,-00.000464400000,  -0.00120,
,,,-00.000464000000,  -0.00400,
,,,-00.000463600000,   0.00080,
,,,-00.000463200000,  -0.00240,
,,,-00.000462800000,  -0.00120,
,,,-00.000462400000,  -0.00400,
,,,-00.000462000000,  -0.00160,
,,,-00.000461600000,  -0.00160,
,,,-00.000461200000,  -0.00320,
,,,-00.000460800000,   0.00040,
,,,-00.000460400000,  -0.00240,
,,,-00.000460000000,  -0.00160,
,,,-00.000459600000,  -0.00360,
,,,-00.000459200000,  -0.00200,
,,,-00.000458800000,   0.00000,
,,,-00.000458400000,  -0.00240,
,,,-00.000458000000,   0.00000,
,,,-00.000457600000,  -0.00320,
,,,-00.000457200000,   0.00000,
,,,-00.000456800000,  -0.00160,
,,,-00.000456400000,  -0.00360,
,,,-00.000456000000,   0.00000,
,,,-00.000455600000,   0.00040,
,,,-00.000455200000,  -0.00280,
,,,-00.000454800000,  -0.00360,
,,,-00.000454400000,  -0.00080,
,,,-00.000454000000,  -0.00240,
,,,-00.000453600000,  -0.00280,
,,,-00.000453200000,   0.00200,
,,,-00.000452800000,  -0.00320,
,,,-00.000452400000,  -0.00200,
,,,-00.000452000000,  -0.00160,
,,,-00.000451600000,   0.00000,
,,,-00.000451200000,  -0.00080,
,,,-00.000450800000,  -0.00280,
,,,-00.000450400000,  -0.00120,
,,,-00.000450000000,  -0.00240,
,,,-00.000449600000,   0.00040,
,,,-00.000449200000,  -0.00280,
,,,-00.000448800000,  -0.00160,
,,,-00.000448400000,   0.00120,
,,,-00.000448000000,  -0.00080,
,,,-00.000447600000,  -0.00160,
,,,-00.000447200000,  -0.00240,
,,,-00.000446800000,  -0.00080,
,,,-00.000446400000,   0.00000,
,,,-00.000446000000,  -0.00240,
,,,-00.000445600000,   0.00040,
,,,-00.000445200000,  -0.00240,
,,,-00.000444800000,   0.00000,
,,,-00.000444400000,  -0.00240,
,,,-00.000444000000,  -0.00320,
,,,-00.000443600000,   0.00000,
,,,-00.000443200000,  -0.00320,
,,,-00.000442800000,  -0.00400,
,,,-00.000442400000,  -0.00160,
,,,-00.000442000000,  -0.00120,
,,,-00.000441600000,  -0.00200,
,,,-00.000441200000,  -0.00200,
,,,-00.000440800000,   0.00120,
,,,-00.000440400000,  -0.00160,
,,,-00.000440000000,  -0.00040,
,,,-00.000439600000,  -0.00080,
,,,-00.000439200000,  -0.00080,
,,,-00.000438800000,  -0.00080,
,,,-00.000438400000,  -0.00360,
,,,-00.000438000000,   0.00040,
,,,-00.000437600000,  -0.00240,
,,,-00.000437200000,  -0.00080,
,,,-00.000436800000,  -0.00080,
,,,-00.000436400000,  -0.00280,
,,,-00.000436000000,   0.00240,
,,,-00.000435600000,  -0.00120,
,,,-00.000435200000,  -0.00080,
,,,-00.000434800000,  -0.00280,
,,,-00.000434400000,  -0.00160,
,,,-00.000434000000,  -0.00280,
,,,-00.000433600000,  -0.00080,
,,,-00.000433200000,  -0.00080,
,,,-00.000432800000,  -0.00160,
,,,-00.000432400000,  -0.00160,
,,,-00.000432000000,  -0.00280,
,,,-00.000431600000,  -0.00320,
,,,-00.000431200000,  -0.00200,
,,,-00.000430800000,  -0.00280,
,,,-00.000430400000,  -0.00120,
,,,-00.000430000000,  -0.00200,
,,,-00.000429600000,  -0.00120,
,,,-00.000429200000,  -0.00160,
,,,-00.000428800000,  -0.00240,
,,,-00.000428400000,  -0.00160,
,,,-00.000428000000,  -0.00120,
,,,-00.000427600000,  -0.00040,
,,,-00.000427200000,  -0.00280,
,,,-00.000426800000,  -0.00080,
,,,-00.000426400000,   0.00000,
,,,-00.000426000000,  -0.00160,
,,,-00.000425600000,   0.00080,
,,,-00.000425200000,  -0.00160,
,,,-00.000424800000,   0.00000,
,,,-00.000424400000,  -0.00440,
,,,-00.000424000000,  -0.00200,
,,,-00.000423600000,  -0.00120,
,,,-00.000423200000,  -0.00080,
,,,-00.000422800000,  -0.00120,
,,,-00.000422400000,  -0.00240,
,,,-00.000422000000,  -0.00200,
,,,-00.000421600000,  -0.00120,
,,,-00.000421200000,  -0.00320,
,,,-00.000420800000,   0.00320,
,,,-00.000420400000,   0.00000,
,,,-00.000420000000,  -0.00040,
,,,-00.000419600000,  -0.00360,
,,,-00.000419200000,  -0.00280,
,,,-00.000418800000,  -0.00200,
,,,-00.000418400000,  -0.00240,
,,,-00.000418000000,   0.00000,
,,,-00.000417600000,  -0.00120,
,,,-00.000417200000,  -0.00200,
,,,-00.000416800000,  -0.00280,
,,,-00.000416400000,  -0.00280,
,,,-00.000416000000,  -0.00040,
,,,-00.000415600000,   0.00040,
,,,-00.000415200000,  -0.00280,
,,,-00.000414800000,  -0.00280,
,,,-00.000414400000,  -0.00200,
,,,-00.000414000000,  -0.00160,
,,,-00.000413600000,  -0.00200,
,,,-00.000413200000,  -0.00120,
,,,-00.000412800000,  -0.00160,
,,,-00.000412400000,  -0.00280,
,,,-00.000412000000,  -0.00360,
,,,-00.000411600000,  -0.00440,
,,,-00.000411200000,   0.00120,
,,,-00.000410800000,  -0.00160,
,,,-00.000410400000,  -0.00040,
,,,-00.000410000000,  -0.00200,
,,,-00.000409600000,  -0.00080,
,,,-00.000409200000,  -0.00240,
,,,-00.000408800000,  -0.00120,
,,,-00.000408400000,   0.00120,
,,,-00.000408000000,  -0.00160,
,,,-00.000407600000,  -0.00160,
,,,-00.000407200000,  -0.00440,
,,,-00.000406800000,  -0.00080,
,,,-00.000406400000,  -0.00120,
,,,-00.000406000000,  -0.00280,
,,,-00.000405600000,  -0.00040,
,,,-00.000405200000,  -0.00240,
,,,-00.000404800000,  -0.00200,
,,,-00.000404400000,  -0.00360,
,,,-00.000404000000,  -0.00320,
,,,-00.000403600000,  -0.00160,
,,,-00.000403200000,  -0.00040,
,,,-00.000402800000,  -0.00280,
,,,-00.000402400000,  -0.00240,
,,,-00.000402000000,  -0.00040,
,,,-00.000401600000,  -0.00320,
,,,-00.000401200000,  -0.00200,
,,,-00.000400800000,   0.00000,
,,,-00.000400400000,  -0.00240,
,,,-00.000400000000,   0.00080,
,,,-00.000399600000,  -0.00240,
,,,-00.000399200000,  -0.00080,
,,,-00.000398800000,   0.00000,
,,,-00.000398400000,  -0.00200,
,,,-00.000398000000,   0.00000,
,,,-00.000397600000,  -0.00080,
,,,-00.000397200000,  -0.00240,
,,,-00.000396800000,  -0.00320,
,,,-00.000396400000,  -0.00280,
,,,-00.000396000000,   0.00080,
,,,-00.000395600000,  -0.00160,
,,,-00.000395200000,  -0.00360,
,,,-00.000394800000,  -0.00360,
,,,-00.000394400000,  -0.00040,
,,,-00.000394000000,  -0.00520,
,,,-00.000393600000,  -0.00280,
,,,-00.000393200000,   0.00120,
,,,-00.000392800000,  -0.00040,
,,,-00.000392400000,  -0.00200,
,,,-00.000392000000,  -0.00400,
,,,-00.000391600000,  -0.00480,
,,,-00.000391200000,   0.00000,
,,,-00.000390800000,  -0.00120,
,,,-00.000390400000,  -0.00120,
,,,-00.000390000000,  -0.00280,
,,,-00.000389600000,  -0.00200,
,,,-00.000389200000,  -0.00440,
,,,-00.000388800000,  -0.00280,
,,,-00.000388400000,  -0.00120,
,,,-00.000388000000,  -0.00200,
,,,-00.000387600000,  -0.00280,
,,,-00.000387200000,  -0.00400,
,,,-00.000386800000,  -0.00160,
,,,-00.000386400000,  -0.00200,
,,,-00.000386000000,  -0.00280,
,,,-00.000385600000,   0.00160,
,,,-00.000385200000,  -0.00200,
,,,-00.000384800000,  -0.00080,
,,,-00.000384400000,  -0.00360,
,,,-00.000384000000,  -0.00320,
,,,-00.000383600000,   0.00040,
,,,-00.000383200000,  -0.00120,
,,,-00.000382800000,  -0.00200,
,,,-00.000382400000,  -0.00440,
,,,-00.000382000000,   0.00000,
,,,-00.000381600000,  -0.00480,
,,,-00.000381200000,  -0.00320,
,,,-00.000380800000,   0.00160,
,,,-00.000380400000,  -0.00240,
,,,-00.000380000000,  -0.00240,
,,,-00.000379600000,  -0.00360,
,,,-00.000379200000,  -0.00320,
,,,-00.000378800000,  -0.00080,
,,,-00.000378400000,  -0.00240,
,,,-00.000378000000,  -0.00040,
,,,-00.000377600000,  -0.00120,
,,,-00.000377200000,  -0.00120,
,,,-00.000376800000,  -0.00360,
,,,-00.000376400000,  -0.00320,
,,,-00.000376000000,   0.00080,
,,,-00.000375600000,  -0.00120,
,,,-00.000375200000,  -0.00320,
,,,-00.000374800000,  -0.00400,
,,,-00.000374400000,  -0.00160,
,,,-00.000374000000,  -0.00080,
,,,-00.000373600000,  -0.00280,
,,,-00.000373200000,   0.00000,
,,,-00.000372800000,  -0.00040,
,,,-00.000372400000,  -0.00160,
,,,-00.000372000000,  -0.00200,
,,,-00.000371600000,  -0.00280,
,,,-00.000371200000,  -0.00080,
,,,-00.000370800000,  -0.00160,
,,,-00.000370400000,   0.00000,
,,,-00.000370000000,  -0.00320,
,,,-00.000369600000,  -0.00120,
,,,-00.000369200000,  -0.00120,
,,,-00.000368800000,  -0.00240,
,,,-00.000368400000,   0.00080,
,,,-00.000368000000,  -0.00240,
,,,-00.000367600000,  -0.00320,
,,,-00.000367200000,  -0.00240,
,,,-00.000366800000,  -0.00160,
,,,-00.000366400000,   0.00000,
,,,-00.000366000000,  -0.00360,
,,,-00.000365600000,  -0.00040,
,,,-00.000365200000,  -0.00200,
,,,-00.000364800000,  -0.00160,
,,,-00.000364400000,  -0.00320,
,,,-00.000364000000,  -0.00360,
,,,-00.000363600000,  -0.00120,
,,,-00.000363200000,  -0.00280,
,,,-00.000362800000,  -0.00160,
,,,-00.000362400000,  -0.00320,
,,,-00.000362000000,  -0.00080,
,,,-00.000361600000,  -0.00160,
,,,-00.000361200000,  -0.00400,
,,,-00.000360800000,   0.00120,
,,,-00.000360400000,   0.00000,
,,,-00.000360000000,  -0.00280,
,,,-00.000359600000,  -0.00240,
,,,-00.000359200000,  -0.00320,
,,,-00.000358800000,  -0.00200,
,,,-00.000358400000,  -0.00280,
,,,-00.000358000000,  -0.00040,
,,,-00.000357600000,  -0.00040,
,,,-00.000357200000,   0.00080,
,,,-00.000356800000,  -0.00200,
,,,-00.000356400000,  -0.00320,
,,,-00.000356000000,  -0.00040,
,,,-00.000355600000,  -0.00160,
,,,-00.000355200000,  -0.00280,
,,,-00.000354800000,  -0.00360,
,,,-00.000354400000,  -0.00280,
,,,-00.000354000000,  -0.00040,
,,,-00.000353600000,  -0.00400,
,,,-00.000353200000,   0.00080,
,,,-00.000352800000,  -0.00040,
,,,-00.000352400000,  -0.00080,
,,,-00.000352000000,  -0.00280,
,,,-00.000351600000,  -0.00480,
,,,-00.000351200000,  -0.00080,
,,,-00.000350800000,  -0.00200,
,,,-00.000350400000,  -0.00080,
,,,-00.000350000000,  -0.00280,
,,,-00.000349600000,  -0.00160,
,,,-00.000349200000,  -0.00320,
,,,-00.000348800000,  -0.00600,
,,,-00.000348400000,   0.00120,
,,,-00.000348000000,   0.00160,
,,,-00.000347600000,  -0.00240,
,,,-00.000347200000,  -0.00520,
,,,-00.000346800000,  -0.00160,
,,,-00.000346400000,  -0.00200,
,,,-00.000346000000,  -0.00360,
,,,-00.000345600000,   0.00040,
,,,-00.000345200000,  -0.00240,
,,,-00.000344800000,  -0.00120,
,,,-00.000344400000,  -0.00320,
,,,-00.000344000000,  -0.00200,
,,,-00.000343600000,   0.00120,
,,,-00.000343200000,  -0.00320,
,,,-00.000342800000,  -0.00160,
,,,-00.000342400000,  -0.00360,
,,,-00.000342000000,  -0.00120,
,,,-00.000341600000,  -0.00120,
,,,-00.000341200000,  -0.00320,
,,,-00.000340800000,   0.00040,
,,,-00.000340400000,   0.00000,
,,,-00.000340000000,  -0.00240,
,,,-00.000339600000,  -0.00320,
,,,-00.000339200000,  -0.00200,
,,,-00.000338800000,  -0.00040,
,,,-00.000338400000,  -0.00240,
,,,-00.000338000000,   0.00000,
,,,-00.000337600000,  -0.00320,
,,,-00.000337200000,  -0.00200,
,,,-00.000336800000,  -0.00280,
,,,-00.000336400000,  -0.00400,
,,,-00.000336000000,  -0.00080,
,,,-00.000335600000,  -0.00120,
,,,-00.000335200000,  -0.00320,
,,,-00.000334800000,  -0.00440,
,,,-00.000334400000,  -0.00240,
,,,-00.000334000000,  -0.00160,
,,,-00.000333600000,  -0.00400,
,,,-00.000333200000,   0.00040,
,,,-00.000332800000,  -0.00160,
,,,-00.000332400000,  -0.00320,
,,,-00.000332000000,  -0.00600,
,,,-00.000331600000,  -0.00400,
,,,-00.000331200000,   0.00080,
,,,-00.000330800000,  -0.00200,
,,,-00.000330400000,  -0.00040,
,,,-00.000330000000,  -0.00320,
,,,-00.000329600000,  -0.00200,
,,,-00.000329200000,  -0.00280,
,,,-00.000328800000,  -0.00520,
,,,-00.000328400000,   0.00080,
,,,-00.000328000000,  -0.00240,
,,,-00.000327600000,  -0.00440,
,,,-00.000327200000,  -0.00320,
,,,-00.000326800000,  -0.00200,
,,,-00.000326400000,  -0.00440,
,,,-00.000326000000,  -0.00280,
,,,-00.000325600000,   0.00080,
,,,-00.000325200000,  -0.00120,
,,,-00.000324800000,  -0.00040,
,,,-00.000324400000,  -0.00360,
,,,-00.000324000000,  -0.00240,
,,,-00.000323600000,   0.00040,
,,,-00.000323200000,  -0.00240,
,,,-00.000322800000,  -0.00160,
,,,-00.000322400000,  -0.00600,
,,,-00.000322000000,  -0.00160,
,,,-00.000321600000,  -0.00400,
,,,-00.000321200000,  -0.00480,
,,,-00.000320800000,   0.00080,
,,,-00.000320400000,  -0.00040,
,,,-00.000320000000,  -0.00280,
,,,-00.000319600000,  -0.00320,
,,,-00.000319200000,  -0.00360,
,,,-00.000318800000,  -0.00240,
,,,-00.000318400000,  -0.00360,
,,,-00.000318000000,  -0.00120,
,,,-00.000317600000,  -0.00040,
,,,-00.000317200000,  -0.00160,
,,,-00.000316800000,  -0.00440,
,,,-00.000316400000,  -0.00560,
,,,-00.000316000000,  -0.00160,
,,,-00.000315600000,  -0.00080,
,,,-00.000315200000,  -0.00320,
,,,-00.000314800000,  -0.00160,
,,,-00.000314400000,   0.00000,
,,,-00.000314000000,  -0.00200,
,,,-00.000313600000,  -0.00400,
,,,-00.000313200000,   0.00240,
,,,-00.000312800000,  -0.00240,
,,,-00.000312400000,  -0.00120,
,,,-00.000312000000,  -0.00520,
,,,-00.000311600000,  -0.00360,
,,,-00.000311200000,  -0.00080,
,,,-00.000310800000,  -0.00320,
,,,-00.000310400000,  -0.00080,
,,,-00.000310000000,   0.00000,
,,,-00.000309600000,  -0.00320,
,,,-00.000309200000,  -0.00360,
,,,-00.000308800000,  -0.00400,
,,,-00.000308400000,   0.00000,
,,,-00.000308000000,   0.00080,
,,,-00.000307600000,  -0.00160,
,,,-00.000307200000,  -0.00280,
,,,-00.000306800000,  -0.00360,
,,,-00.000306400000,  -0.00080,
,,,-00.000306000000,  -0.00400,
,,,-00.000305600000,   0.00040,
,,,-00.000305200000,  -0.00040,
,,,-00.000304800000,  -0.00320,
,,,-00.000304400000,  -0.00360,
,,,-00.000304000000,  -0.00440,
,,,-00.000303600000,   0.00000,
,,,-00.000303200000,  -0.00280,
,,,-00.000302800000,  -0.00200,
,,,-00.000302400000,  -0.00200,
,,,-00.000302000000,  -0.00200,
,,,-00.000301600000,  -0.00280,
,,,-00.000301200000,  -0.00360,
,,,-00.000300800000,   0.00160,
,,,-00.000300400000,   0.00040,
,,,-00.000300000000,  -0.00280,
,,,-00.000299600000,  -0.00400,
,,,-00.000299200000,  -0.00240,
,,,-00.000298800000,  -0.00120,
,,,-00.000298400000,  -0.00160,
,,,-00.000298000000,   0.00080,
,,,-00.000297600000,  -0.00280,
,,,-00.000297200000,  -0.00320,
,,,-00.000296800000,  -0.00320,
,,,-00.000296400000,  -0.00440,
,,,-00.000296000000,   0.00000,
,,,-00.000295600000,   0.00000,
,,,-00.000295200000,  -0.00280,
,,,-00.000294800000,  -0.00400,
,,,-00.000294400000,  -0.00280,
,,,-00.000294000000,  -0.00320,
,,,-00.000293600000,  -0.00400,
,,,-00.000293200000,   0.00200,
,,,-00.000292800000,   0.00040,
,,,-00.000292400000,  -0.00440,
,,,-00.000292000000,  -0.00360,
,,,-00.000291600000,  -0.00320,
,,,-00.000291200000,  -0.00120,
,,,-00.000290800000,  -0.00200,
,,,-00.000290400000,  -0.00120,
,,,-00.000290000000,  -0.00160,
,,,-00.000289600000,  -0.00120,
,,,-00.000289200000,  -0.00360,
,,,-00.000288800000,  -0.00600,
,,,-00.000288400000,   0.00040,
,,,-00.000288000000,  -0.00080,
,,,-00.000287600000,  -0.00360,
,,,-00.000287200000,  -0.00240,
,,,-00.000286800000,  -0.00280,
,,,-00.000286400000,  -0.00200,
,,,-00.000286000000,  -0.00600,
,,,-00.000285600000,   0.00080,
,,,-00.000285200000,  -0.00080,
,,,-00.000284800000,  -0.00080,
,,,-00.000284400000,  -0.00480,
,,,-00.000284000000,  -0.00520,
,,,-00.000283600000,  -0.00120,
,,,-00.000283200000,  -0.00200,
,,,-00.000282800000,  -0.00280,
,,,-00.000282400000,  -0.00240,
,,,-00.000282000000,  -0.00280,
,,,-00.000281600000,  -0.00160,
,,,-00.000281200000,  -0.00560,
,,,-00.000280800000,   0.00120,
,,,-00.000280400000,  -0.00080,
,,,-00.000280000000,  -0.00400,
,,,-00.000279600000,  -0.00440,
,,,-00.000279200000,  -0.00400,
,,,-00.000278800000,  -0.00120,
,,,-00.000278400000,  -0.00200,
,,,-00.000278000000,   0.00160,
,,,-00.000277600000,  -0.00040,
,,,-00.000277200000,  -0.00280,
,,,-00.000276800000,  -0.00160,
,,,-00.000276400000,  -0.00360,
,,,-00.000276000000,   0.00080,
,,,-00.000275600000,  -0.00160,
,,,-00.000275200000,  -0.00200,
,,,-00.000274800000,  -0.00320,
,,,-00.000274400000,  -0.00480,
,,,-00.000274000000,  -0.00280,
,,,-00.000273600000,  -0.00600,
,,,-00.000273200000,   0.00240,
,,,-00.000272800000,  -0.00080,
,,,-00.000272400000,  -0.00360,
,,,-00.000272000000,  -0.00120,
,,,-00.000271600000,  -0.00640,
,,,-00.000271200000,   0.00040,
,,,-00.000270800000,  -0.00320,
,,,-00.000270400000,  -0.00040,
,,,-00.000270000000,  -0.00160,
,,,-00.000269600000,  -0.00400,
,,,-00.000269200000,  -0.00320,
,,,-00.000268800000,  -0.00600,
,,,-00.000268400000,  -0.00200,
,,,-00.000268000000,   0.00000,
,,,-00.000267600000,  -0.00440,
,,,-00.000267200000,  -0.00440,
,,,-00.000266800000,  -0.00440,
,,,-00.000266400000,  -0.00120,
,,,-00.000266000000,  -0.00280,
,,,-00.000265600000,  -0.00040,
,,,-00.000265200000,   0.00040,
,,,-00.000264800000,  -0.00240,
,,,-00.000264400000,  -0.00440,
,,,-00.000264000000,  -0.00640,
,,,-00.000263600000,   0.00200,
,,,-00.000263200000,  -0.00080,
,,,-00.000262800000,  -0.00040,
,,,-00.000262400000,  -0.00160,
,,,-00.000262000000,  -0.00320,
,,,-00.000261600000,  -0.00360,
,,,-00.000261200000,  -0.00640,
,,,-00.000260800000,   0.00040,
,,,-00.000260400000,   0.00080,
,,,-00.000260000000,  -0.00280,
,,,-00.000259600000,  -0.00480,
,,,-00.000259200000,  -0.00520,
,,,-00.000258800000,  -0.00080,
,,,-00.000258400000,  -0.00240,
,,,-00.000258000000,   0.00240,
,,,-00.000257600000,   0.00000,
,,,-00.000257200000,  -0.00320,
,,,-00.000256800000,  -0.00360,
,,,-00.000256400000,  -0.00560,
,,,-00.000256000000,  -0.00200,
,,,-00.000255600000,  -0.00200,
,,,-00.000255200000,  -0.00120,
,,,-00.000254800000,  -0.00400,
,,,-00.000254400000,  -0.00280,
,,,-00.000254000000,  -0.00400,
,,,-00.000253600000,  -0.00520,
,,,-00.000253200000,   0.00240,
,,,-00.000252800000,   0.00000,
,,,-00.000252400000,  -0.00240,
,,,-00.000252000000,  -0.00440,
,,,-00.000251600000,  -0.00600,
,,,-00.000251200000,  -0.00160,
,,,-00.000250800000,  -0.00120,
,,,-00.000250400000,   0.00080,
,,,-00.000250000000,  -0.00040,
,,,-00.000249600000,  -0.00240,
,,,-00.000249200000,  -0.00480,
,,,-00.000248800000,  -0.00600,
,,,-00.000248400000,   0.00040,
,,,-00.000248000000,   0.00120,
,,,-00.000247600000,  -0.00280,
,,,-00.000247200000,  -0.00320,
,,,-00.000246800000,  -0.00400,
,,,-00.000246400000,  -0.00320,
,,,-00.000246000000,  -0.00320,
,,,-00.000245600000,   0.00040,
,,,-00.000245200000,   0.00120,
,,,-00.000244800000,  -0.00480,
,,,-00.000244400000,  -0.00240,
,,,-00.000244000000,  -0.00560,
,,,-00.000243600000,   0.00080,
,,,-00.000243200000,  -0.00200,
,,,-00.000242800000,  -0.00080,
,,,-00.000242400000,  -0.00280,
,,,-00.000242000000,  -0.00440,
,,,-00.000241600000,  -0.00280,
,,,-00.000241200000,  -0.00640,
,,,-00.000240800000,   0.00040,
,,,-00.000240400000,   0.00080,
,,,-00.000240000000,  -0.00480,
,,,-00.000239600000,  -0.00560,
,,,-00.000239200000,  -0.00720,
,,,-00.000238800000,  -0.00080,
,,,-00.000238400000,  -0.00320,
,,,-00.000238000000,   0.00160,
,,,-00.000237600000,   0.00080,
,,,-00.000237200000,  -0.00280,
,,,-00.000236800000,  -0.00480,
,,,-00.000236400000,  -0.00760,
,,,-00.000236000000,   0.00120,
,,,-00.000235600000,   0.00080,
,,,-00.000235200000,   0.00000,
,,,-00.000234800000,  -0.00480,
,,,-00.000234400000,  -0.00360,
,,,-00.000234000000,  -0.00240,
,,,-00.000233600000,  -0.00440,
,,,-00.000233200000,   0.00160,
,,,-00.000232800000,   0.00040,
,,,-00.000232400000,  -0.00600,
,,,-00.000232000000,  -0.00520,
,,,-00.000231600000,  -0.00720,
,,,-00.000231200000,   0.00000,
,,,-00.000230800000,  -0.00360,
,,,-00.000230400000,   0.00000,
,,,-00.000230000000,  -0.00080,
,,,-00.000229600000,  -0.00240,
,,,-00.000229200000,  -0.00320,
,,,-00.000228800000,  -0.00800,
,,,-00.000228400000,  -0.00040,
,,,-00.000228000000,   0.00120,
,,,-00.000227600000,  -0.00160,
,,,-00.000227200000,  -0.00440,
,,,-00.000226800000,  -0.00680,
,,,-00.000226400000,   0.00040,
,,,-00.000226000000,  -0.00560,
,,,-00.000225600000,   0.00240,
,,,-00.000225200000,   0.00160,
,,,-00.000224800000,  -0.00280,
,,,-00.000224400000,  -0.00400,
,,,-00.000224000000,  -0.00720,
,,,-00.000223600000,   0.00040,
,,,-00.000223200000,  -0.00080,
,,,-00.000222800000,   0.00080,
,,,-00.000222400000,  -0.00160,
,,,-00.000222000000,  -0.00720,
,,,-00.000221600000,  -0.00280,
,,,-00.000221200000,  -0.00560,
,,,-00.000220800000,   0.00280,
,,,-00.000220400000,   0.00200,
,,,-00.000220000000,  -0.00240,
,,,-00.000219600000,  -0.00360,
,,,-00.000219200000,  -0.00720,
,,,-00.000218800000,   0.00040,
,,,-00.000218400000,  -0.00320,
,,,-00.000218000000,   0.00040,
,,,-00.000217600000,   0.00320,
,,,-00.000217200000,  -0.00360,
,,,-00.000216800000,  -0.00280,
,,,-00.000216400000,  -0.00640,
,,,-00.000216000000,   0.00080,
,,,-00.000215600000,   0.00160,
,,,-00.000215200000,   0.00120,
,,,-00.000214800000,  -0.00200,
,,,-00.000214400000,  -0.00520,
,,,-00.000214000000,   0.00000,
,,,-00.000213600000,  -0.00520,
,,,-00.000213200000,   0.00080,
,,,-00.000212800000,   0.00320,
,,,-00.000212400000,  -0.00520,
,,,-00.000212000000,  -0.00320,
,,,-00.000211600000,  -0.00720,
,,,-00.000211200000,  -0.00040,
,,,-00.000210800000,  -0.00040,
,,,-00.000210400000,   0.00040,
,,,-00.000210000000,   0.00120,
,,,-00.000209600000,  -0.00400,
,,,-00.000209200000,  -0.00240,
,,,-00.000208800000,  -0.00640,
,,,-00.000208400000,   0.00080,
,,,-00.000208000000,   0.00280,
,,,-00.000207600000,  -0.00200,
,,,-00.000207200000,  -0.00440,
,,,-00.000206800000,  -0.00840,
,,,-00.000206400000,   0.00080,
,,,-00.000206000000,  -0.00160,
,,,-00.000205600000,   0.00080,
,,,-00.000205200000,   0.00240,
,,,-00.000204800000,  -0.00440,
,,,-00.000204400000,  -0.00240,
,,,-00.000204000000,  -0.00800,
,,,-00.000203600000,   0.00040,
,,,-00.000203200000,   0.00160,
,,,-00.000202800000,  -0.00160,
,,,-00.000202400000,  -0.00040,
,,,-00.000202000000,  -0.00760,
,,,-00.000201600000,  -0.00080,
,,,-00.000201200000,  -0.00480,
,,,-00.000200800000,   0.00200,
,,,-00.000200400000,   0.00360,
,,,-00.000200000000,  -0.00160,
,,,-00.000199600000,  -0.00320,
,,,-00.000199200000,  -0.00920,
,,,-00.000198800000,   0.00080,
,,,-00.000198400000,  -0.00200,
,,,-00.000198000000,   0.00280,
,,,-00.000197600000,   0.00280,
,,,-00.000197200000,  -0.00480,
,,,-00.000196800000,  -0.00240,
,,,-00.000196400000,  -0.00760,
,,,-00.000196000000,   0.00040,
,,,-00.000195600000,   0.00360,
,,,-00.000195200000,   0.00000,
,,,-00.000194800000,  -0.00160,
,,,-00.000194400000,  -0.00640,
,,,-00.000194000000,   0.00000,
,,,-00.000193600000,  -0.00400,
,,,-00.000193200000,   0.00160,
,,,-00.000192800000,   0.00320,
,,,-00.000192400000,  -0.00240,
,,,-00.000192000000,  -0.00120,
,,,-00.000191600000,  -0.00800,
,,,-00.000191200000,   0.00320,
,,,-00.000190800000,   0.00240,
,,,-00.000190400000,   0.00320,
,,,-00.000190000000,   0.00160,
,,,-00.000189600000,  -0.00720,
,,,-00.000189200000,   0.00000,
,,,-00.000188800000,  -0.00640,
,,,-00.000188400000,   0.00000,
,,,-00.000188000000,   0.00280,
,,,-00.000187600000,   0.00040,
,,,-00.000187200000,  -0.00160,
,,,-00.000186800000,  -0.01000,
,,,-00.000186400000,   0.00120,
,,,-00.000186000000,  -0.00040,
,,,-00.000185600000,   0.00280,
,,,-00.000185200000,   0.00400,
,,,-00.000184800000,  -0.00280,
,,,-00.000184400000,  -0.00240,
,,,-00.000184000000,  -0.00800,
,,,-00.000183600000,   0.00040,
,,,-00.000183200000,   0.00520,
,,,-00.000182800000,   0.00320,
,,,-00.000182400000,  -0.00160,
,,,-00.000182000000,  -0.00920,
,,,-00.000181600000,   0.00160,
,,,-00.000181200000,  -0.00320,
,,,-00.000180800000,   0.00360,
,,,-00.000180400000,   0.00680,
,,,-00.000180000000,  -0.00160,
,,,-00.000179600000,  -0.00240,
,,,-00.000179200000,  -0.00880,
,,,-00.000178800000,   0.00200,
,,,-00.000178400000,   0.00160,
,,,-00.000178000000,   0.00240,
,,,-00.000177600000,   0.00240,
,,,-00.000177200000,  -0.00440,
,,,-00.000176800000,   0.00000,
,,,-00.000176400000,  -0.00880,
,,,-00.000176000000,   0.00240,
,,,-00.000175600000,   0.00360,
,,,-00.000175200000,   0.00280,
,,,-00.000174800000,  -0.00080,
,,,-00.000174400000,  -0.00840,
,,,-00.000174000000,   0.00200,
,,,-00.000173600000,  -0.00360,
,,,-00.000173200000,   0.00080,
,,,-00.000172800000,   0.00480,
,,,-00.000172400000,  -0.00200,
,,,-00.000172000000,  -0.00280,
,,,-00.000171600000,  -0.00880,
,,,-00.000171200000,   0.00400,
,,,-00.000170800000,   0.00320,
,,,-00.000170400000,   0.00160,
,,,-00.000170000000,   0.00120,
,,,-00.000169600000,  -0.00560,
,,,-00.000169200000,  -0.00280,
,,,-00.000168800000,  -0.00480,
,,,-00.000168400000,   0.00320,
,,,-00.000168000000,   0.00640,
,,,-00.000167600000,   0.00000,
,,,-00.000167200000,  -0.00240,
,,,-00.000166800000,  -0.01080,
,,,-00.000166400000,   0.00280,
,,,-00.000166000000,  -0.00120,
,,,-00.000165600000,   0.00080,
,,,-00.000165200000,   0.00440,
,,,-00.000164800000,  -0.00200,
,,,-00.000164400000,  -0.00200,
,,,-00.000164000000,  -0.00800,
,,,-00.000163600000,   0.00160,
,,,-00.000163200000,   0.00400,
,,,-00.000162800000,   0.00240,
,,,-00.000162400000,  -0.00120,
,,,-00.000162000000,  -0.01120,
,,,-00.000161600000,   0.00040,
,,,-00.000161200000,  -0.00280,
,,,-00.000160800000,   0.00040,
,,,-00.000160400000,   0.00440,
,,,-00.000160000000,   0.00160,
,,,-00.000159600000,  -0.00200,
,,,-00.000159200000,  -0.00920,
,,,-00.000158800000,   0.00080,
,,,-00.000158400000,   0.00480,
,,,-00.000158000000,   0.00240,
,,,-00.000157600000,  -0.00040,
,,,-00.000157200000,  -0.00320,
,,,-00.000156800000,  -0.00040,
,,,-00.000156400000,  -0.00560,
,,,-00.000156000000,   0.00040,
,,,-00.000155600000,   0.00760,
,,,-00.000155200000,   0.00440,
,,,-00.000154800000,  -0.00120,
,,,-00.000154400000,  -0.01000,
,,,-00.000154000000,  -0.00040,
,,,-00.000153600000,  -0.00320,
,,,-00.000153200000,   0.00200,
,,,-00.000152800000,   0.00400,
,,,-00.000152400000,  -0.00080,
,,,-00.000152000000,  -0.00200,
,,,-00.000151600000,  -0.00800,
,,,-00.000151200000,   0.00000,
,,,-00.000150800000,   0.00440,
,,,-00.000150400000,   0.00120,
,,,-00.000150000000,   0.00120,
,,,-00.000149600000,  -0.00720,
,,,-00.000149200000,  -0.00160,
,,,-00.000148800000,  -0.00280,
,,,-00.000148400000,  -0.00120,
,,,-00.000148000000,   0.00840,
,,,-00.000147600000,   0.00400,
,,,-00.000147200000,  -0.00400,
,,,-00.000146800000,  -0.01080,
,,,-00.000146400000,   0.00080,
,,,-00.000146000000,   0.00160,
,,,-00.000145600000,   0.00200,
,,,-00.000145200000,   0.00440,
,,,-00.000144800000,  -0.00160,
,,,-00.000144400000,  -0.00200,
,,,-00.000144000000,  -0.00920,
,,,-00.000143600000,   0.00000,
,,,-00.000143200000,   0.00600,
,,,-00.000142800000,   0.00320,
,,,-00.000142400000,  -0.00160,
,,,-00.000142000000,  -0.01080,
,,,-00.000141600000,  -0.00040,
,,,-00.000141200000,  -0.00240,
,,,-00.000140800000,  -0.00200,
,,,-00.000140400000,   0.00600,
,,,-00.000140000000,   0.00240,
,,,-00.000139600000,  -0.00560,
,,,-00.000139200000,  -0.00920,
,,,-00.000138800000,  -0.00120,
,,,-00.000138400000,   0.00400,
,,,-00.000138000000,   0.00200,
,,,-00.000137600000,   0.00240,
,,,-00.000137200000,  -0.00400,
,,,-00.000136800000,   0.00040,
,,,-00.000136400000,  -0.00480,
,,,-00.000136000000,  -0.00280,
,,,-00.000135600000,   0.00720,
,,,-00.000135200000,   0.00560,
,,,-00.000134800000,  -0.00280,
,,,-00.000134400000,  -0.00840,
,,,-00.000134000000,   0.00120,
,,,-00.000133600000,   0.00040,
,,,-00.000133200000,  -0.00040,
,,,-00.000132800000,   0.00480,
,,,-00.000132400000,   0.00160,
,,,-00.000132000000,  -0.00320,
,,,-00.000131600000,  -0.01040,
,,,-00.000131200000,  -0.00120,
,,,-00.000130800000,   0.00680,
,,,-00.000130400000,   0.00280,
,,,-00.000130000000,   0.00040,
,,,-00.000129600000,  -0.00680,
,,,-00.000129200000,  -0.00160,
,,,-00.000128800000,  -0.00160,
,,,-00.000128400000,  -0.00440,
,,,-00.000128000000,   0.00720,
,,,-00.000127600000,   0.00640,
,,,-00.000127200000,  -0.00400,
,,,-00.000126800000,  -0.00920,
,,,-00.000126400000,  -0.00040,
,,,-00.000126000000,   0.00400,
,,,-00.000125600000,   0.00200,
,,,-00.000125200000,   0.00600,
,,,-00.000124800000,   0.00160,
,,,-00.000124400000,  -0.00320,
,,,-00.000124000000,  -0.00560,
,,,-00.000123600000,  -0.00320,
,,,-00.000123200000,   0.00920,
,,,-00.000122800000,   0.00520,
,,,-00.000122400000,  -0.00160,
,,,-00.000122000000,  -0.00840,
,,,-00.000121600000,  -0.00120,
,,,-00.000121200000,  -0.00200,
,,,-00.000120800000,  -0.00120,
,,,-00.000120400000,   0.00840,
,,,-00.000120000000,   0.00600,
,,,-00.000119600000,  -0.00520,
,,,-00.000119200000,  -0.00840,
,,,-00.000118800000,  -0.00200,
,,,-00.000118400000,   0.00360,
,,,-00.000118000000,   0.00360,
,,,-00.000117600000,   0.00320,
,,,-00.000117200000,  -0.00280,
,,,-00.000116800000,  -0.00360,
,,,-00.000116400000,  -0.00400,
,,,-00.000116000000,  -0.00280,
,,,-00.000115600000,   0.00880,
,,,-00.000115200000,   0.00920,
,,,-00.000114800000,  -0.00240,
,,,-00.000114400000,  -0.00840,
,,,-00.000114000000,  -0.00040,
,,,-00.000113600000,   0.00080,
,,,-00.000113200000,   0.00080,
,,,-00.000112800000,   0.00880,
,,,-00.000112400000,   0.00560,
,,,-00.000112000000,  -0.00560,
,,,-00.000111600000,  -0.00640,
,,,-00.000111200000,  -0.00520,
,,,-00.000110800000,   0.00960,
,,,-00.000110400000,   0.00560,
,,,-00.000110000000,   0.00240,
,,,-00.000109600000,  -0.00680,
,,,-00.000109200000,  -0.00280,
,,,-00.000108800000,  -0.00160,
,,,-00.000108400000,  -0.00240,
,,,-00.000108000000,   0.01120,
,,,-00.000107600000,   0.01080,
,,,-00.000107200000,  -0.00320,
,,,-00.000106800000,  -0.00800,
,,,-00.000106400000,  -0.00160,
,,,-00.000106000000,   0.00400,
,,,-00.000105600000,   0.00360,
,,,-00.000105200000,   0.00840,
,,,-00.000104800000,   0.00440,
,,,-00.000104400000,  -0.00480,
,,,-00.000104000000,  -0.00160,
,,,-00.000103600000,  -0.00480,
,,,-00.000103200000,   0.01320,
,,,-00.000102800000,   0.00880,
,,,-00.000102400000,   0.00000,
,,,-00.000102000000,  -0.00960,
,,,-00.000101600000,  -0.00160,
,,,-00.000101200000,   0.00280,
,,,-00.000100800000,  -0.00200,
,,,-00.000100400000,   0.01160,
,,,-00.000100000000,   0.01120,
,,,-00.000099600000,  -0.00320,
,,,-00.000099200000,  -0.00680,
,,,-00.000098800000,  -0.00200,
,,,-00.000098400000,   0.00880,
,,,-00.000098000000,   0.00680,
,,,-00.000097600000,   0.00720,
,,,-00.000097200000,   0.00360,
,,,-00.000096800000,  -0.00560,
,,,-00.000096400000,   0.00000,
,,,-00.000096000000,  -0.00440,
,,,-00.000095600000,   0.01440,
,,,-00.000095200000,   0.01400,
,,,-00.000094800000,  -0.00160,
,,,-00.000094400000,  -0.00680,
,,,-00.000094000000,  -0.00120,
,,,-00.000093600000,   0.00680,
,,,-00.000093200000,   0.00520,
,,,-00.000092800000,   0.01240,
,,,-00.000092400000,   0.01160,
,,,-00.000092000000,  -0.00680,
,,,-00.000091600000,  -0.00240,
,,,-00.000091200000,  -0.00440,
,,,-00.000090800000,   0.01240,
,,,-00.000090400000,   0.01160,
,,,-00.000090000000,   0.00600,
,,,-00.000089600000,  -0.00080,
,,,-00.000089200000,  -0.00400,
,,,-00.000088800000,   0.00360,
,,,-00.000088400000,  -0.00080,
,,,-00.000088000000,   0.01600,
,,,-00.000087600000,   0.01720,
,,,-00.000087200000,  -0.00240,
,,,-00.000086800000,  -0.00360,
,,,-00.000086400000,  -0.00240,
,,,-00.000086000000,   0.00960,
,,,-00.000085600000,   0.00800,
,,,-00.000085200000,   0.01320,
,,,-00.000084800000,   0.01040,
,,,-00.000084400000,  -0.00640,
,,,-00.000084000000,   0.00320,
,,,-00.000083600000,  -0.00280,
,,,-00.000083200000,   0.01600,
,,,-00.000082800000,   0.01760,
,,,-00.000082400000,   0.00600,
,,,-00.000082000000,  -0.00560,
,,,-00.000081600000,  -0.00160,
,,,-00.000081200000,   0.00560,
,,,-00.000080800000,   0.00520,
,,,-00.000080400000,   0.01720,
,,,-00.000080000000,   0.01800,
,,,-00.000079600000,  -0.00040,
,,,-00.000079200000,   0.00000,
,,,-00.000078800000,   0.00080,
,,,-00.000078400000,   0.01520,
,,,-00.000078000000,   0.01360,
,,,-00.000077600000,   0.01120,
,,,-00.000077200000,   0.00800,
,,,-00.000076800000,  -0.00360,
,,,-00.000076400000,   0.00760,
,,,-00.000076000000,   0.00000,
,,,-00.000075600000,   0.02080,
,,,-00.000075200000,   0.02080,
,,,-00.000074800000,   0.00400,
,,,-00.000074400000,  -0.00320,
,,,-00.000074000000,   0.00080,
,,,-00.000073600000,   0.01400,
,,,-00.000073200000,   0.00840,
,,,-00.000072800000,   0.01800,
,,,-00.000072400000,   0.01800,
,,,-00.000072000000,  -0.00240,
,,,-00.000071600000,   0.00440,
,,,-00.000071200000,   0.00160,
,,,-00.000070800000,   0.01880,
,,,-00.000070400000,   0.02000,
,,,-00.000070000000,   0.01360,
,,,-00.000069600000,   0.00720,
,,,-00.000069200000,  -0.00160,
,,,-00.000068800000,   0.01320,
,,,-00.000068400000,   0.00280,
,,,-00.000068000000,   0.02120,
,,,-00.000067600000,   0.02360,
,,,-00.000067200000,   0.00360,
,,,-00.000066800000,   0.00200,
,,,-00.000066400000,   0.00160,
,,,-00.000066000000,   0.01720,
,,,-00.000065600000,   0.01480,
,,,-00.000065200000,   0.01800,
,,,-00.000064800000,   0.01640,
,,,-00.000064400000,  -0.00160,
,,,-00.000064000000,   0.01240,
,,,-00.000063600000,   0.00320,
,,,-00.000063200000,   0.02200,
,,,-00.000062800000,   0.02440,
,,,-00.000062400000,   0.01080,
,,,-00.000062000000,   0.00440,
,,,-00.000061600000,   0.00320,
,,,-00.000061200000,   0.01720,
,,,-00.000060800000,   0.00760,
,,,-00.000060400000,   0.02080,
,,,-00.000060000000,   0.02440,
,,,-00.000059600000,   0.00560,
,,,-00.000059200000,   0.00760,
,,,-00.000058800000,   0.00560,
,,,-00.000058400000,   0.01960,
,,,-00.000058000000,   0.02320,
,,,-00.000057600000,   0.01920,
,,,-00.000057200000,   0.01480,
,,,-00.000056800000,  -0.00120,
,,,-00.000056400000,   0.01800,
,,,-00.000056000000,   0.00400,
,,,-00.000055600000,   0.02400,
,,,-00.000055200000,   0.02720,
,,,-00.000054800000,   0.01240,
,,,-00.000054400000,   0.00600,
,,,-00.000054000000,   0.00240,
,,,-00.000053600000,   0.01960,
,,,-00.000053200000,   0.01760,
,,,-00.000052800000,   0.02040,
,,,-00.000052400000,   0.02520,
,,,-00.000052000000,   0.00280,
,,,-00.000051600000,   0.01480,
,,,-00.000051200000,   0.00600,
,,,-00.000050800000,   0.02000,
,,,-00.000050400000,   0.02680,
,,,-00.000050000000,   0.01920,
,,,-00.000049600000,   0.01440,
,,,-00.000049200000,   0.00320,
,,,-00.000048800000,   0.02080,
,,,-00.000048400000,   0.01120,
,,,-00.000048000000,   0.02320,
,,,-00.000047600000,   0.02840,
,,,-00.000047200000,   0.01280,
,,,-00.000046800000,   0.01160,
,,,-00.000046400000,   0.00440,
,,,-00.000046000000,   0.02280,
,,,-00.000045600000,   0.02240,
,,,-00.000045200000,   0.02080,
,,,-00.000044800000,   0.02280,
,,,-00.000044400000,   0.00160,
,,,-00.000044000000,   0.01840,
,,,-00.000043600000,   0.00920,
,,,-00.000043200000,   0.02320,
,,,-00.000042800000,   0.02840,
,,,-00.000042400000,   0.01880,
,,,-00.000042000000,   0.01080,
,,,-00.000041600000,   0.00440,
,,,-00.000041200000,   0.02400,
,,,-00.000040800000,   0.01680,
,,,-00.000040400000,   0.02240,
,,,-00.000040000000,   0.02600,
,,,-00.000039600000,   0.01200,
,,,-00.000039200000,   0.01600,
,,,-00.000038800000,   0.01000,
,,,-00.000038400000,   0.02360,
,,,-00.000038000000,   0.02800,
,,,-00.000037600000,   0.02240,
,,,-00.000037200000,   0.02040,
,,,-00.000036800000,   0.00440,
,,,-00.000036400000,   0.02240,
,,,-00.000036000000,   0.01480,
,,,-00.000035600000,   0.02520,
,,,-00.000035200000,   0.02840,
,,,-00.000034800000,   0.01880,
,,,-00.000034400000,   0.01320,
,,,-00.000034000000,   0.00800,
,,,-00.000033600000,   0.02520,
,,,-00.000033200000,   0.02360,
,,,-00.000032800000,   0.02280,
,,,-00.000032400000,   0.02360,
,,,-00.000032000000,   0.00680,
,,,-00.000031600000,   0.02240,
,,,-00.000031200000,   0.00960,
,,,-00.000030800000,   0.02400,
,,,-00.000030400000,   0.03040,
,,,-00.000030000000,   0.02280,
,,,-00.000029600000,   0.01880,
,,,-00.000029200000,   0.00640,
,,,-00.000028800000,   0.02720,
,,,-00.000028400000,   0.01680,
,,,-00.000028000000,   0.02480,
,,,-00.000027600000,   0.03040,
,,,-00.000027200000,   0.01880,
,,,-00.000026800000,   0.01600,
,,,-00.000026400000,   0.00920,
,,,-00.000026000000,   0.02400,
,,,-00.000025600000,   0.02520,
,,,-00.000025200000,   0.02400,
,,,-00.000024800000,   0.02440,
,,,-00.000024400000,   0.00480,
,,,-00.000024000000,   0.02400,
,,,-00.000023600000,   0.01560,
,,,-00.000023200000,   0.02520,
,,,-00.000022800000,   0.03080,
,,,-00.000022400000,   0.02200,
,,,-00.000022000000,   0.01800,
,,,-00.000021600000,   0.00920,
,,,-00.000021200000,   0.02560,
,,,-00.000020800000,   0.02240,
,,,-00.000020400000,   0.02480,
,,,-00.000020000000,   0.02760,
,,,-00.000019600000,   0.01640,
,,,-00.000019200000,   0.02080,
,,,-00.000018800000,   0.01320,
,,,-00.000018400000,   0.02360,
,,,-00.000018000000,   0.03040,
,,,-00.000017600000,   0.02320,
,,,-00.000017200000,   0.02280,
,,,-00.000016800000,   0.00480,
,,,-00.000016400000,   0.02800,
,,,-00.000016000000,   0.01880,
,,,-00.000015600000,   0.02440,
,,,-00.000015200000,   0.03000,
,,,-00.000014800000,   0.02160,
,,,-00.000014400000,   0.01720,
,,,-00.000014000000,   0.01040,
,,,-00.000013600000,   0.02680,
,,,-00.000013200000,   0.02480,
,,,-00.000012800000,   0.02320,
,,,-00.000012400000,   0.02640,
,,,-00.000012000000,   0.01200,
,,,-00.000011600000,   0.02320,
,,,-00.000011200000,   0.01640,
,,,-00.000010800000,   0.02440,
,,,-00.000010400000,   0.03120,
,,,-00.000010000000,   0.02440,
,,,-00.000009600000,   0.02000,
,,,-00.000009200000,   0.00840,
,,,-00.000008800000,   0.02960,
,,,-00.000008400000,   0.02080,
,,,-00.000008000000,   0.02240,
,,,-00.000007600000,   0.02880,
,,,-00.000007200000,   0.02080,
,,,-00.000006800000,   0.01800,
,,,-00.000006400000,   0.01400,
,,,-00.000006000000,   0.02360,
,,,-00.000005600000,   0.03080,
,,,-00.000005200000,   0.02320,
,,,-00.000004800000,   0.02440,
,,,-00.000004400000,   0.00840,
,,,-00.000004000000,   0.02680,
,,,-00.000003600000,   0.01720,
,,,-00.000003200000,   0.02360,
,,,-00.000002800000,   0.03080,
,,,-00.000002400000,   0.02400,
,,,-00.000002000000,   0.01960,
,,,-00.000001600000,   0.01040,
,,,-00.000001200000,   0.02960,
,,,-00.000000800000,   0.02320,
,,,-00.000000400000,   0.02280,
,,,-00.000000000000,   0.02800,
,,,00.000000400000,   0.01920,
,,,00.000000800000,   0.02280,
,,,00.000001200000,   0.01400,
,,,00.000001600000,   0.02320,
,,,00.000002000000,   0.03080,
,,,00.000002400000,   0.02080,
,,,00.000002800000,   0.02160,
,,,00.000003200000,   0.00800,
,,,00.000003600000,   0.02760,
,,,00.000004000000,   0.02120,
,,,00.000004400000,   0.02200,
,,,00.000004800000,   0.02960,
,,,00.000005200000,   0.02280,
,,,00.000005600000,   0.01880,
,,,00.000006000000,   0.01280,
,,,00.000006400000,   0.02600,
,,,00.000006800000,   0.02560,
,,,00.000007200000,   0.02160,
,,,00.000007600000,   0.02320,
,,,00.000008000000,   0.01440,
,,,00.000008400000,   0.02320,
,,,00.000008800000,   0.01640,
,,,00.000009200000,   0.02280,
,,,00.000009600000,   0.02840,
,,,00.000010000000,   0.02120,
,,,00.000010400000,   0.02160,
,,,00.000010800000,   0.01080,
,,,00.000011200000,   0.02680,
,,,00.000011600000,   0.02280,
,,,00.000012000000,   0.02360,
,,,00.000012400000,   0.02680,
,,,00.000012800000,   0.02400,
,,,00.000013200000,   0.01880,
,,,00.000013600000,   0.01280,
,,,00.000014000000,   0.02400,
,,,00.000014400000,   0.02920,
,,,00.000014800000,   0.01920,
,,,00.000015200000,   0.02160,
,,,00.000015600000,   0.01120,
,,,00.000016000000,   0.02640,
,,,00.000016400000,   0.01840,
,,,00.000016800000,   0.02160,
,,,00.000017200000,   0.02880,
,,,00.000017600000,   0.01920,
,,,00.000018000000,   0.01600,
,,,00.000018400000,   0.00920,
,,,00.000018800000,   0.02720,
,,,00.000019200000,   0.02560,
,,,00.000019600000,   0.01840,
,,,00.000020000000,   0.02360,
,,,00.000020400000,   0.01960,
,,,00.000020800000,   0.02200,
,,,00.000021200000,   0.01280,
,,,00.000021600000,   0.01920,
,,,00.000022000000,   0.02840,
,,,00.000022400000,   0.01920,
,,,00.000022800000,   0.01720,
,,,00.000023200000,   0.00960,
,,,00.000023600000,   0.02360,
,,,00.000024000000,   0.02120,
,,,00.000024400000,   0.01840,
,,,00.000024800000,   0.02680,
,,,00.000025200000,   0.02080,
,,,00.000025600000,   0.01800,
,,,00.000026000000,   0.01040,
,,,00.000026400000,   0.02240,
,,,00.000026800000,   0.02600,
,,,00.000027200000,   0.01880,
,,,00.000027600000,   0.01880,
,,,00.000028000000,   0.01560,
,,,00.000028400000,   0.02160,
,,,00.000028800000,   0.01360,
,,,00.000029200000,   0.01840,
,,,00.000029600000,   0.02440,
,,,00.000030000000,   0.01880,
,,,00.000030400000,   0.01560,
,,,00.000030800000,   0.00880,
,,,00.000031200000,   0.02240,
,,,00.000031600000,   0.02120,
,,,00.000032000000,   0.01560,
,,,00.000032400000,   0.02280,
,,,00.000032800000,   0.02000,
,,,00.000033200000,   0.01560,
,,,00.000033600000,   0.01280,
,,,00.000034000000,   0.01920,
,,,00.000034400000,   0.02560,
,,,00.000034800000,   0.01480,
,,,00.000035200000,   0.01480,
,,,00.000035600000,   0.00960,
,,,00.000036000000,   0.02280,
,,,00.000036400000,   0.01640,
,,,00.000036800000,   0.01240,
,,,00.000037200000,   0.02320,
,,,00.000037600000,   0.02000,
,,,00.000038000000,   0.01400,
,,,00.000038400000,   0.00800,
,,,00.000038800000,   0.01920,
,,,00.000039200000,   0.02040,
,,,00.000039600000,   0.01280,
,,,00.000040000000,   0.01600,
,,,00.000040400000,   0.01600,
,,,00.000040800000,   0.01520,
,,,00.000041200000,   0.01040,
,,,00.000041600000,   0.01480,
,,,00.000042000000,   0.02280,
,,,00.000042400000,   0.01040,
,,,00.000042800000,   0.00920,
,,,00.000043200000,   0.00600,
,,,00.000043600000,   0.01960,
,,,00.000044000000,   0.01480,
,,,00.000044400000,   0.00920,
,,,00.000044800000,   0.02080,
,,,00.000045200000,   0.01600,
,,,00.000045600000,   0.00960,
,,,00.000046000000,   0.00560,
,,,00.000046400000,   0.01520,
,,,00.000046800000,   0.01880,
,,,00.000047200000,   0.00800,
,,,00.000047600000,   0.01120,
,,,00.000048000000,   0.00960,
,,,00.000048400000,   0.01480,
,,,00.000048800000,   0.00600,
,,,00.000049200000,   0.00760,
,,,00.000049600000,   0.01760,
,,,00.000050000000,   0.00920,
,,,00.000050400000,   0.00600,
,,,00.000050800000,   0.00000,
,,,00.000051200000,   0.01400,
,,,00.000051600000,   0.01480,
,,,00.000052000000,   0.00120,
,,,00.000052400000,   0.01240,
,,,00.000052800000,   0.01200,
,,,00.000053200000,   0.01040,
,,,00.000053600000,   0.00320,
,,,00.000054000000,   0.00680,
,,,00.000054400000,   0.01600,
,,,00.000054800000,   0.00280,
,,,00.000055200000,   0.00320,
,,,00.000055600000,   0.00200,
,,,00.000056000000,   0.01080,
,,,00.000056400000,   0.00640,
,,,00.000056800000,   0.00120,
,,,00.000057200000,   0.01320,
,,,00.000057600000,   0.00760,
,,,00.000058000000,   0.00200,
,,,00.000058400000,  -0.00320,
,,,00.000058800000,   0.00680,
,,,00.000059200000,   0.00920,
,,,00.000059600000,  -0.00280,
,,,00.000060000000,   0.00560,
,,,00.000060400000,   0.00840,
,,,00.000060800000,   0.00720,
,,,00.000061200000,  -0.00200,
,,,00.000061600000,   0.00000,
,,,00.000062000000,   0.01080,
,,,00.000062400000,  -0.00080,
,,,00.000062800000,  -0.00200,
,,,00.000063200000,  -0.00200,
,,,00.000063600000,   0.00680,
,,,00.000064000000,   0.00040,
,,,00.000064400000,  -0.00560,
,,,00.000064800000,   0.00640,
,,,00.000065200000,   0.00480,
,,,00.000065600000,  -0.00160,
,,,00.000066000000,  -0.00640,
,,,00.000066400000,   0.00200,
,,,00.000066800000,   0.00680,
,,,00.000067200000,  -0.00720,
,,,00.000067600000,  -0.00120,
,,,00.000068000000,   0.00240,
,,,00.000068400000,   0.00160,
,,,00.000068800000,  -0.00520,
,,,00.000069200000,  -0.00640,
,,,00.000069600000,   0.00440,
,,,00.000070000000,  -0.00320,
,,,00.000070400000,  -0.00960,
,,,00.000070800000,  -0.00720,
,,,00.000071200000,   0.00080,
,,,00.000071600000,  -0.00360,
,,,00.000072000000,  -0.01240,
,,,00.000072400000,   0.00000,
,,,00.000072800000,   0.00080,
,,,00.000073200000,  -0.00240,
,,,00.000073600000,  -0.00960,
,,,00.000074000000,  -0.00800,
,,,00.000074400000,   0.00240,
,,,00.000074800000,  -0.01240,
,,,00.000075200000,  -0.00880,
,,,00.000075600000,  -0.00440,
,,,00.000076000000,  -0.00160,
,,,00.000076400000,  -0.00920,
,,,00.000076800000,  -0.01480,
,,,00.000077200000,  -0.00280,
,,,00.000077600000,  -0.00880,
,,,00.000078000000,  -0.01200,
,,,00.000078400000,  -0.00960,
,,,00.000078800000,  -0.00520,
,,,00.000079200000,  -0.00440,
,,,00.000079600000,  -0.01760,
,,,00.000080000000,  -0.00560,
,,,00.000080400000,  -0.00440,
,,,00.000080800000,  -0.00320,
,,,00.000081200000,  -0.01320,
,,,00.000081600000,  -0.01400,
,,,00.000082000000,  -0.00440,
,,,00.000082400000,  -0.01480,
,,,00.000082800000,  -0.01320,
,,,00.000083200000,  -0.00880,
,,,00.000083600000,  -0.00720,
,,,00.000084000000,  -0.01320,
,,,00.000084400000,  -0.02040,
,,,00.000084800000,  -0.00560,
,,,00.000085200000,  -0.01080,
,,,00.000085600000,  -0.01240,
,,,00.000086000000,  -0.01400,
,,,00.000086400000,  -0.01280,
,,,00.000086800000,  -0.00960,
,,,00.000087200000,  -0.02000,
,,,00.000087600000,  -0.01080,
,,,00.000088000000,  -0.00920,
,,,00.000088400000,  -0.00640,
,,,00.000088800000,  -0.01880,
,,,00.000089200000,  -0.01920,
,,,00.000089600000,  -0.00880,
,,,00.000090000000,  -0.01640,
,,,00.000090400000,  -0.01960,
,,,00.000090800000,  -0.01520,
,,,00.000091200000,  -0.01200,
,,,00.000091600000,  -0.01560,
,,,00.000092000000,  -0.02440,
,,,00.000092400000,  -0.01160,
,,,00.000092800000,  -0.01280,
,,,00.000093200000,  -0.01240,
,,,00.000093600000,  -0.01920,
,,,00.000094000000,  -0.01720,
,,,00.000094400000,  -0.01240,
,,,00.000094800000,  -0.02440,
,,,00.000095200000,  -0.01840,
,,,00.000095600000,  -0.01240,
,,,00.000096000000,  -0.01400,
,,,00.000096400000,  -0.02280,
,,,00.000096800000,  -0.02400,
,,,00.000097200000,  -0.01360,
,,,00.000097600000,  -0.02000,
,,,00.000098000000,  -0.02200,
,,,00.000098400000,  -0.01720,
,,,00.000098800000,  -0.01520,
,,,00.000099200000,  -0.01720,
,,,00.000099600000,  -0.02640,
,,,00.000100000000,  -0.01520,
,,,00.000100400000,  -0.01480,
,,,00.000100800000,  -0.01200,
,,,00.000101200000,  -0.02440,
,,,00.000101600000,  -0.02080,
,,,00.000102000000,  -0.01600,
,,,00.000102400000,  -0.02680,
,,,00.000102800000,  -0.02040,
,,,00.000103200000,  -0.01560,
,,,00.000103600000,  -0.01400,
,,,00.000104000000,  -0.02360,
,,,00.000104400000,  -0.02800,
,,,00.000104800000,  -0.01600,
,,,00.000105200000,  -0.01720,
,,,00.000105600000,  -0.02000,
,,,00.000106000000,  -0.02040,
,,,00.000106400000,  -0.01840,
,,,00.000106800000,  -0.01880,
,,,00.000107200000,  -0.03120,
,,,00.000107600000,  -0.01960,
,,,00.000108000000,  -0.01760,
,,,00.000108400000,  -0.01320,
,,,00.000108800000,  -0.02320,
,,,00.000109200000,  -0.02560,
,,,00.000109600000,  -0.01840,
,,,00.000110000000,  -0.02640,
,,,00.000110400000,  -0.02360,
,,,00.000110800000,  -0.01880,
,,,00.000111200000,  -0.01520,
,,,00.000111600000,  -0.02440,
,,,00.000112000000,  -0.02960,
,,,00.000112400000,  -0.01760,
,,,00.000112800000,  -0.02080,
,,,00.000113200000,  -0.01520,
,,,00.000113600000,  -0.02480,
,,,00.000114000000,  -0.02240,
,,,00.000114400000,  -0.01960,
,,,00.000114800000,  -0.03080,
,,,00.000115200000,  -0.02320,
,,,00.000115600000,  -0.01760,
,,,00.000116000000,  -0.01240,
,,,00.000116400000,  -0.02920,
,,,00.000116800000,  -0.02520,
,,,00.000117200000,  -0.02040,
,,,00.000117600000,  -0.02520,
,,,00.000118000000,  -0.02440,
,,,00.000118400000,  -0.01920,
,,,00.000118800000,  -0.01600,
,,,00.000119200000,  -0.02560,
,,,00.000119600000,  -0.03040,
,,,00.000120000000,  -0.02040,
,,,00.000120400000,  -0.02040,
,,,00.000120800000,  -0.01360,
,,,00.000121200000,  -0.02600,
,,,00.000121600000,  -0.02200,
,,,00.000122000000,  -0.02120,
,,,00.000122400000,  -0.03080,
,,,00.000122800000,  -0.02200,
,,,00.000123200000,  -0.01880,
,,,00.000123600000,  -0.01440,
,,,00.000124000000,  -0.02920,
,,,00.000124400000,  -0.02960,
,,,00.000124800000,  -0.02000,
,,,00.000125200000,  -0.02600,
,,,00.000125600000,  -0.02160,
,,,00.000126000000,  -0.02240,
,,,00.000126400000,  -0.01720,
,,,00.000126800000,  -0.02440,
,,,00.000127200000,  -0.03000,
,,,00.000127600000,  -0.02280,
,,,00.000128000000,  -0.02200,
,,,00.000128400000,  -0.01320,
,,,00.000128800000,  -0.02800,
,,,00.000129200000,  -0.02280,
,,,00.000129600000,  -0.02120,
,,,00.000130000000,  -0.03360,
,,,00.000130400000,  -0.02480,
,,,00.000130800000,  -0.01880,
,,,00.000131200000,  -0.01480,
,,,00.000131600000,  -0.02840,
,,,00.000132000000,  -0.02720,
,,,00.000132400000,  -0.02040,
,,,00.000132800000,  -0.02440,
,,,00.000133200000,  -0.01720,
,,,00.000133600000,  -0.02360,
,,,00.000134000000,  -0.02160,
,,,00.000134400000,  -0.02400,
,,,00.000134800000,  -0.03120,
,,,00.000135200000,  -0.02080,
,,,00.000135600000,  -0.02000,
,,,00.000136000000,  -0.01280,
,,,00.000136400000,  -0.02960,
,,,00.000136800000,  -0.02440,
,,,00.000137200000,  -0.02280,
,,,00.000137600000,  -0.03040,
,,,00.000138000000,  -0.02480,
,,,00.000138400000,  -0.02120,
,,,00.000138800000,  -0.01480,
,,,00.000139200000,  -0.02840,
,,,00.000139600000,  -0.03000,
,,,00.000140000000,  -0.02200,
,,,00.000140400000,  -0.02320,
,,,00.000140800000,  -0.01400,
,,,00.000141200000,  -0.02840,
,,,00.000141600000,  -0.01920,
,,,00.000142000000,  -0.02440,
,,,00.000142400000,  -0.03120,
,,,00.000142800000,  -0.02280,
,,,00.000143200000,  -0.01800,
,,,00.000143600000,  -0.01320,
,,,00.000144000000,  -0.03040,
,,,00.000144400000,  -0.02400,
,,,00.000144800000,  -0.02320,
,,,00.000145200000,  -0.02960,
,,,00.000145600000,  -0.02400,
,,,00.000146000000,  -0.02160,
,,,00.000146400000,  -0.01440,
,,,00.000146800000,  -0.02760,
,,,00.000147200000,  -0.03160,
,,,00.000147600000,  -0.02000,
,,,00.000148000000,  -0.02240,
,,,00.000148400000,  -0.01200,
,,,00.000148800000,  -0.02880,
,,,00.000149200000,  -0.02040,
,,,00.000149600000,  -0.02440,
,,,00.000150000000,  -0.03160,
,,,00.000150400000,  -0.02360,
,,,00.000150800000,  -0.01800,
,,,00.000151200000,  -0.01320,
,,,00.000151600000,  -0.03080,
,,,00.000152000000,  -0.02440,
,,,00.000152400000,  -0.02240,
,,,00.000152800000,  -0.02720,
,,,00.000153200000,  -0.01600,
,,,00.000153600000,  -0.02240,
,,,00.000154000000,  -0.01520,
,,,00.000154400000,  -0.02640,
,,,00.000154800000,  -0.03200,
,,,00.000155200000,  -0.02080,
,,,00.000155600000,  -0.02120,
,,,00.000156000000,  -0.00960,
,,,00.000156400000,  -0.02800,
,,,00.000156800000,  -0.02080,
,,,00.000157200000,  -0.02600,
,,,00.000157600000,  -0.03000,
,,,00.000158000000,  -0.02200,
,,,00.000158400000,  -0.01720,
,,,00.000158800000,  -0.01360,
,,,00.000159200000,  -0.02600,
,,,00.000159600000,  -0.02720,
,,,00.000160000000,  -0.02000,
,,,00.000160400000,  -0.02560,
,,,00.000160800000,  -0.01040,
,,,00.000161200000,  -0.02480,
,,,00.000161600000,  -0.01480,
,,,00.000162000000,  -0.02640,
,,,00.000162400000,  -0.02880,
,,,00.000162800000,  -0.02160,
,,,00.000163200000,  -0.01720,
,,,00.000163600000,  -0.01000,
,,,00.000164000000,  -0.02600,
,,,00.000164400000,  -0.02080,
,,,00.000164800000,  -0.02240,
,,,00.000165200000,  -0.03120,
,,,00.000165600000,  -0.01800,
,,,00.000166000000,  -0.01720,
,,,00.000166400000,  -0.01200,
,,,00.000166800000,  -0.02680,
,,,00.000167200000,  -0.02800,
,,,00.000167600000,  -0.02120,
,,,00.000168000000,  -0.02320,
,,,00.000168400000,  -0.00600,
,,,00.000168800000,  -0.02480,
,,,00.000169200000,  -0.01160,
,,,00.000169600000,  -0.02480,
,,,00.000170000000,  -0.03200,
,,,00.000170400000,  -0.01960,
,,,00.000170800000,  -0.01560,
,,,00.000171200000,  -0.00720,
,,,00.000171600000,  -0.02680,
,,,00.000172000000,  -0.01880,
,,,00.000172400000,  -0.02440,
,,,00.000172800000,  -0.02800,
,,,00.000173200000,  -0.01240,
,,,00.000173600000,  -0.01720,
,,,00.000174000000,  -0.01040,
,,,00.000174400000,  -0.02560,
,,,00.000174800000,  -0.02720,
,,,00.000175200000,  -0.02080,
,,,00.000175600000,  -0.02080,
,,,00.000176000000,  -0.00400,
,,,00.000176400000,  -0.02520,
,,,00.000176800000,  -0.01160,
,,,00.000177200000,  -0.02640,
,,,00.000177600000,  -0.03160,
,,,00.000178000000,  -0.01800,
,,,00.000178400000,  -0.01000,
,,,00.000178800000,  -0.00840,
,,,00.000179200000,  -0.02600,
,,,00.000179600000,  -0.01960,
,,,00.000180000000,  -0.02400,
,,,00.000180400000,  -0.02600,
,,,00.000180800000,  -0.00760,
,,,00.000181200000,  -0.01920,
,,,00.000181600000,  -0.00840,
,,,00.000182000000,  -0.02240,
,,,00.000182400000,  -0.02560,
,,,00.000182800000,  -0.02000,
,,,00.000183200000,  -0.01560,
,,,00.000183600000,  -0.00200,
,,,00.000184000000,  -0.02200,
,,,00.000184400000,  -0.01040,
,,,00.000184800000,  -0.02280,
,,,00.000185200000,  -0.02760,
,,,00.000185600000,  -0.01320,
,,,00.000186000000,  -0.00920,
,,,00.000186400000,  -0.00800,
,,,00.000186800000,  -0.02320,
,,,00.000187200000,  -0.02040,
,,,00.000187600000,  -0.02040,
,,,00.000188000000,  -0.02120,
,,,00.000188400000,  -0.00240,
,,,00.000188800000,  -0.01760,
,,,00.000189200000,  -0.00800,
,,,00.000189600000,  -0.02360,
,,,00.000190000000,  -0.02480,
,,,00.000190400000,  -0.01560,
,,,00.000190800000,  -0.00880,
,,,00.000191200000,  -0.00480,
,,,00.000191600000,  -0.02080,
,,,00.000192000000,  -0.01120,
,,,00.000192400000,  -0.02280,
,,,00.000192800000,  -0.02440,
,,,00.000193200000,  -0.00880,
,,,00.000193600000,  -0.00920,
,,,00.000194000000,  -0.00520,
,,,00.000194400000,  -0.02080,
,,,00.000194800000,  -0.01920,
,,,00.000195200000,  -0.02120,
,,,00.000195600000,  -0.01760,
,,,00.000196000000,  -0.00040,
,,,00.000196400000,  -0.01520,
,,,00.000196800000,  -0.00360,
,,,00.000197200000,  -0.02360,
,,,00.000197600000,  -0.02640,
,,,00.000198000000,  -0.01160,
,,,00.000198400000,  -0.00480,
,,,00.000198800000,  -0.00640,
,,,00.000199200000,  -0.01800,
,,,00.000199600000,  -0.00840,
,,,00.000200000000,  -0.02080,
,,,00.000200400000,  -0.02240,
,,,00.000200800000,  -0.00320,
,,,00.000201200000,  -0.00920,
,,,00.000201600000,  -0.00280,
,,,00.000202000000,  -0.01760,
,,,00.000202400000,  -0.01800,
,,,00.000202800000,  -0.01560,
,,,00.000203200000,  -0.01360,
,,,00.000203600000,   0.00040,
,,,00.000204000000,  -0.01400,
,,,00.000204400000,  -0.00280,
,,,00.000204800000,  -0.02000,
,,,00.000205200000,  -0.02360,
,,,00.000205600000,  -0.00840,
,,,00.000206000000,  -0.00240,
,,,00.000206400000,  -0.00240,
,,,00.000206800000,  -0.01680,
,,,00.000207200000,  -0.01120,
,,,00.000207600000,  -0.01720,
,,,00.000208000000,  -0.01800,
,,,00.000208400000,   0.00080,
,,,00.000208800000,  -0.00760,
,,,00.000209200000,  -0.00240,
,,,00.000209600000,  -0.01880,
,,,00.000210000000,  -0.01520,
,,,00.000210400000,  -0.01040,
,,,00.000210800000,  -0.00480,
,,,00.000211200000,  -0.00080,
,,,00.000211600000,  -0.01040,
,,,00.000212000000,  -0.00440,
,,,00.000212400000,  -0.01960,
,,,00.000212800000,  -0.02120,
,,,00.000213200000,  -0.00360,
,,,00.000213600000,   0.00240,
,,,00.000214000000,  -0.00240,
,,,00.000214400000,  -0.01360,
,,,00.000214800000,  -0.01080,
,,,00.000215200000,  -0.01360,
,,,00.000215600000,  -0.01280,
,,,00.000216000000,   0.00200,
,,,00.000216400000,  -0.00320,
,,,00.000216800000,   0.00000,
,,,00.000217200000,  -0.01720,
,,,00.000217600000,  -0.01760,
,,,00.000218000000,  -0.00720,
,,,00.000218400000,   0.00200,
,,,00.000218800000,   0.00000,
,,,00.000219200000,  -0.00880,
,,,00.000219600000,  -0.00320,
,,,00.000220000000,  -0.01640,
,,,00.000220400000,  -0.01640,
,,,00.000220800000,   0.00000,
,,,00.000221200000,   0.00200,
,,,00.000221600000,  -0.00080,
,,,00.000222000000,  -0.01320,
,,,00.000222400000,  -0.01000,
,,,00.000222800000,  -0.01040,
,,,00.000223200000,  -0.00800,
,,,00.000223600000,   0.00280,
,,,00.000224000000,  -0.00440,
,,,00.000224400000,   0.00280,
,,,00.000224800000,  -0.01720,
,,,00.000225200000,  -0.01520,
,,,00.000225600000,  -0.00280,
,,,00.000226000000,   0.00560,
,,,00.000226400000,  -0.00320,
,,,00.000226800000,  -0.00640,
,,,00.000227200000,  -0.00280,
,,,00.000227600000,  -0.01320,
,,,00.000228000000,  -0.01280,
,,,00.000228400000,   0.00360,
,,,00.000228800000,   0.00160,
,,,00.000229200000,   0.00160,
,,,00.000229600000,  -0.01080,
,,,00.000230000000,  -0.01000,
,,,00.000230400000,  -0.00840,
,,,00.000230800000,  -0.00200,
,,,00.000231200000,   0.00120,
,,,00.000231600000,  -0.00120,
,,,00.000232000000,   0.00080,
,,,00.000232400000,  -0.01320,
,,,00.000232800000,  -0.01280,
,,,00.000233200000,   0.00080,
,,,00.000233600000,   0.00560,
,,,00.000234000000,   0.00000,
,,,00.000234400000,  -0.00680,
,,,00.000234800000,  -0.00400,
,,,00.000235200000,  -0.01040,
,,,00.000235600000,  -0.01000,
,,,00.000236000000,   0.00400,
,,,00.000236400000,   0.00240,
,,,00.000236800000,   0.00160,
,,,00.000237200000,  -0.00880,
,,,00.000237600000,  -0.00840,
,,,00.000238000000,  -0.00320,
,,,00.000238400000,   0.00280,
,,,00.000238800000,  -0.00200,
,,,00.000239200000,   0.00000,
,,,00.000239600000,   0.00080,
,,,00.000240000000,  -0.01360,
,,,00.000240400000,  -0.01000,
,,,00.000240800000,   0.00120,
,,,00.000241200000,   0.00360,
,,,00.000241600000,  -0.00080,
,,,00.000242000000,  -0.00880,
,,,00.000242400000,  -0.00360,
,,,00.000242800000,  -0.01120,
,,,00.000243200000,  -0.00480,
,,,00.000243600000,   0.00160,
,,,00.000244000000,   0.00240,
,,,00.000244400000,   0.00320,
,,,00.000244800000,  -0.00960,
,,,00.000245200000,  -0.00800,
,,,00.000245600000,  -0.00120,
,,,00.000246000000,   0.00680,
,,,00.000246400000,  -0.00040,
,,,00.000246800000,  -0.00400,
,,,00.000247200000,   0.00280,
,,,00.000247600000,  -0.01160,
,,,00.000248000000,  -0.00880,
,,,00.000248400000,   0.00240,
,,,00.000248800000,   0.00600,
,,,00.000249200000,  -0.00080,
,,,00.000249600000,  -0.00680,
,,,00.000250000000,  -0.00360,
,,,00.000250400000,  -0.00320,
,,,00.000250800000,  -0.00160,
,,,00.000251200000,  -0.00040,
,,,00.000251600000,   0.00160,
,,,00.000252000000,   0.00160,
,,,00.000252400000,  -0.00760,
,,,00.000252800000,  -0.00800,
,,,00.000253200000,  -0.00040,
,,,00.000253600000,   0.00800,
,,,00.000254000000,  -0.00320,
,,,00.000254400000,  -0.00120,
,,,00.000254800000,  -0.00200,
,,,00.000255200000,  -0.01000,
,,,00.000255600000,  -0.00640,
,,,00.000256000000,   0.00080,
,,,00.000256400000,   0.00480,
,,,00.000256800000,   0.00120,
,,,00.000257200000,  -0.00800,
,,,00.000257600000,  -0.00240,
,,,00.000258000000,  -0.00360,
,,,00.000258400000,   0.00280,
,,,00.000258800000,  -0.00120,
,,,00.000259200000,   0.00360,
,,,00.000259600000,   0.00000,
,,,00.000260000000,  -0.00840,
,,,00.000260400000,  -0.00800,
,,,00.000260800000,   0.00240,
,,,00.000261200000,   0.00640,
,,,00.000261600000,  -0.00240,
,,,00.000262000000,  -0.00320,
,,,00.000262400000,  -0.00160,
,,,00.000262800000,  -0.00640,
,,,00.000263200000,  -0.00360,
,,,00.000263600000,   0.00120,
,,,00.000264000000,   0.00520,
,,,00.000264400000,   0.00040,
,,,00.000264800000,  -0.00840,
,,,00.000265200000,  -0.00520,
,,,00.000265600000,  -0.00280,
,,,00.000266000000,   0.00720,
,,,00.000266400000,  -0.00120,
,,,00.000266800000,  -0.00040,
,,,00.000267200000,   0.00000,
,,,00.000267600000,  -0.00760,
,,,00.000268000000,  -0.00720,
,,,00.000268400000,   0.00080,
,,,00.000268800000,   0.00760,
,,,00.000269200000,  -0.00240,
,,,00.000269600000,  -0.00360,
,,,00.000270000000,  -0.00200,
,,,00.000270400000,  -0.00400,
,,,00.000270800000,  -0.00240,
,,,00.000271200000,  -0.00040,
,,,00.000271600000,   0.00440,
,,,00.000272000000,   0.00000,
,,,00.000272400000,  -0.00680,
,,,00.000272800000,  -0.00520,
,,,00.000273200000,  -0.00240,
,,,00.000273600000,   0.00600,
,,,00.000274000000,  -0.00400,
,,,00.000274400000,  -0.00080,
,,,00.000274800000,  -0.00120,
,,,00.000275200000,  -0.00680,
,,,00.000275600000,  -0.00480,
,,,00.000276000000,   0.00040,
,,,00.000276400000,   0.00640,
,,,00.000276800000,   0.00040,
,,,00.000277200000,  -0.00360,
,,,00.000277600000,  -0.00280,
,,,00.000278000000,  -0.00320,
,,,00.000278400000,   0.00360,
,,,00.000278800000,  -0.00280,
,,,00.000279200000,   0.00360,
,,,00.000279600000,  -0.00120,
,,,00.000280000000,  -0.00720,
,,,00.000280400000,  -0.00560,
,,,00.000280800000,  -0.00080,
,,,00.000281200000,   0.00760,
,,,00.000281600000,  -0.00320,
,,,00.000282000000,  -0.00080,
,,,00.000282400000,  -0.00080,
,,,00.000282800000,  -0.00680,
,,,00.000283200000,  -0.00240,
,,,00.000283600000,  -0.00120,
,,,00.000284000000,   0.00680,
,,,00.000284400000,  -0.00240,
,,,00.000284800000,  -0.00640,
,,,00.000285200000,  -0.00280,
,,,00.000285600000,  -0.00320,
,,,00.000286000000,   0.00400,
,,,00.000286400000,  -0.00360,
,,,00.000286800000,   0.00160,
,,,00.000287200000,   0.00000,
,,,00.000287600000,  -0.00720,
,,,00.000288000000,  -0.00360,
,,,00.000288400000,  -0.00040,
,,,00.000288800000,   0.00640,
,,,00.000289200000,  -0.00440,
,,,00.000289600000,  -0.00080,
,,,00.000290000000,  -0.00200,
,,,00.000290400000,  -0.00480,
,,,00.000290800000,  -0.00040,
,,,00.000291200000,  -0.00040,
,,,00.000291600000,   0.00400,
,,,00.000292000000,  -0.00160,
,,,00.000292400000,  -0.00480,
,,,00.000292800000,  -0.00480,
,,,00.000293200000,  -0.00200,
,,,00.000293600000,   0.00720,
,,,00.000294000000,  -0.00480,
,,,00.000294400000,   0.00320,
,,,00.000294800000,  -0.00280,
,,,00.000295200000,  -0.00640,
,,,00.000295600000,  -0.00400,
,,,00.000296000000,   0.00000,
,,,00.000296400000,   0.00800,
,,,00.000296800000,  -0.00480,
,,,00.000297200000,  -0.00240,
,,,00.000297600000,  -0.00200,
,,,00.000298000000,  -0.00480,
,,,00.000298400000,   0.00120,
,,,00.000298800000,  -0.00120,
,,,00.000299200000,   0.00440,
,,,00.000299600000,  -0.00400,
,,,00.000300000000,  -0.00760,
,,,00.000300400000,  -0.00480,
,,,00.000300800000,  -0.00200,
,,,00.000301200000,   0.00600,
,,,00.000301600000,  -0.00320,
,,,00.000302000000,   0.00160,
,,,00.000302400000,  -0.00080,
,,,00.000302800000,  -0.00800,
,,,00.000303200000,  -0.00160,
,,,00.000303600000,  -0.00200,
,,,00.000304000000,   0.00680,
,,,00.000304400000,  -0.00320,
,,,00.000304800000,  -0.00600,
,,,00.000305200000,  -0.00240,
,,,00.000305600000,  -0.00360,
,,,00.000306000000,   0.00280,
,,,00.000306400000,  -0.00280,
,,,00.000306800000,   0.00440,
,,,00.000307200000,  -0.00040,
,,,00.000307600000,  -0.00640,
,,,00.000308000000,  -0.00360,
,,,00.000308400000,  -0.00280,
,,,00.000308800000,   0.00560,
,,,00.000309200000,  -0.00320,
,,,00.000309600000,   0.00040,
,,,00.000310000000,  -0.00320,
,,,00.000310400000,  -0.00600,
,,,00.000310800000,   0.00080,
,,,00.000311200000,   0.00040,
,,,00.000311600000,   0.00600,
,,,00.000312000000,  -0.00360,
,,,00.000312400000,  -0.00480,
,,,00.000312800000,  -0.00280,
,,,00.000313200000,  -0.00360,
,,,00.000313600000,   0.00440,
,,,00.000314000000,  -0.00240,
,,,00.000314400000,   0.00480,
,,,00.000314800000,  -0.00320,
,,,00.000315200000,  -0.00440,
,,,00.000315600000,  -0.00360,
,,,00.000316000000,   0.00000,
,,,00.000316400000,   0.00560,
,,,00.000316800000,  -0.00240,
,,,00.000317200000,   0.00080,
,,,00.000317600000,  -0.00320,
,,,00.000318000000,  -0.00480,
,,,00.000318400000,  -0.00080,
,,,00.000318800000,  -0.00080,
,,,00.000319200000,   0.00480,
,,,00.000319600000,  -0.00240,
,,,00.000320000000,  -0.00280,
,,,00.000320400000,  -0.00200,
,,,00.000320800000,  -0.00280,
,,,00.000321200000,   0.00480,
,,,00.000321600000,  -0.00400,
,,,00.000322000000,   0.00560,
,,,00.000322400000,  -0.00200,
,,,00.000322800000,  -0.00400,
,,,00.000323200000,  -0.00040,
,,,00.000323600000,  -0.00040,
,,,00.000324000000,   0.00760,
,,,00.000324400000,  -0.00440,
,,,00.000324800000,  -0.00160,
,,,00.000325200000,  -0.00320,
,,,00.000325600000,  -0.00400,
,,,00.000326000000,   0.00040,
,,,00.000326400000,  -0.00080,
,,,00.000326800000,   0.00560,
,,,00.000327200000,  -0.00400,
,,,00.000327600000,  -0.00360,
,,,00.000328000000,  -0.00240,
,,,00.000328400000,  -0.00280,
,,,00.000328800000,   0.00480,
,,,00.000329200000,  -0.00360,
,,,00.000329600000,   0.00360,
,,,00.000330000000,  -0.00240,
,,,00.000330400000,  -0.00520,
,,,00.000330800000,   0.00000,
,,,00.000331200000,  -0.00240,
,,,00.000331600000,   0.00560,
,,,00.000332000000,  -0.00360,
,,,00.000332400000,  -0.00200,
,,,00.000332800000,  -0.00240,
,,,00.000333200000,  -0.00480,
,,,00.000333600000,   0.00200,
,,,00.000334000000,  -0.00240,
,,,00.000334400000,   0.00560,
,,,00.000334800000,  -0.00440,
,,,00.000335200000,  -0.00280,
,,,00.000335600000,  -0.00120,
,,,00.000336000000,   0.00000,
,,,00.000336400000,   0.00560,
,,,00.000336800000,  -0.00200,
,,,00.000337200000,   0.00160,
,,,00.000337600000,  -0.00200,
,,,00.000338000000,  -0.00240,
,,,00.000338400000,   0.00040,
,,,00.000338800000,  -0.00120,
,,,00.000339200000,   0.00520,
,,,00.000339600000,  -0.00360,
,,,00.000340000000,   0.00040,
,,,00.000340400000,  -0.00200,
,,,00.000340800000,  -0.00280,
,,,00.000341200000,   0.00240,
,,,00.000341600000,  -0.00240,
,,,00.000342000000,   0.00440,
,,,00.000342400000,  -0.00320,
,,,00.000342800000,  -0.00440,
,,,00.000343200000,  -0.00120,
,,,00.000343600000,  -0.00040,
,,,00.000344000000,   0.00400,
,,,00.000344400000,  -0.00440,
,,,00.000344800000,   0.00080,
,,,00.000345200000,  -0.00440,
,,,00.000345600000,  -0.00520,
,,,00.000346000000,   0.00120,
,,,00.000346400000,  -0.00120,
,,,00.000346800000,   0.00640,
,,,00.000347200000,  -0.00400,
,,,00.000347600000,  -0.00040,
,,,00.000348000000,  -0.00080,
,,,00.000348400000,  -0.00120,
,,,00.000348800000,   0.00320,
,,,00.000349200000,  -0.00040,
,,,00.000349600000,   0.00320,
,,,00.000350000000,  -0.00400,
,,,00.000350400000,  -0.00320,
,,,00.000350800000,   0.00040,
,,,00.000351200000,   0.00080,
,,,00.000351600000,   0.00320,
,,,00.000352000000,  -0.00200,
,,,00.000352400000,   0.00120,
,,,00.000352800000,  -0.00400,
,,,00.000353200000,  -0.00280,
,,,00.000353600000,   0.00280,
,,,00.000354000000,   0.00000,
,,,00.000354400000,   0.00640,
,,,00.000354800000,  -0.00480,
,,,00.000355200000,  -0.00200,
,,,00.000355600000,  -0.00160,
,,,00.000356000000,   0.00000,
,,,00.000356400000,   0.00400,
,,,00.000356800000,   0.00040,
,,,00.000357200000,   0.00400,
,,,00.000357600000,  -0.00600,
,,,00.000358000000,  -0.00160,
,,,00.000358400000,   0.00120,
,,,00.000358800000,   0.00200,
,,,00.000359200000,   0.00520,
,,,00.000359600000,  -0.00280,
,,,00.000360000000,   0.00200,
,,,00.000360400000,  -0.00120,
,,,00.000360800000,  -0.00280,
,,,00.000361200000,   0.00200,
,,,00.000361600000,   0.00000,
,,,00.000362000000,   0.00560,
,,,00.000362400000,  -0.00280,
,,,00.000362800000,  -0.00240,
,,,00.000363200000,   0.00040,
,,,00.000363600000,  -0.00040,
,,,00.000364000000,   0.00480,
,,,00.000364400000,  -0.00200,
,,,00.000364800000,   0.00280,
,,,00.000365200000,  -0.00240,
,,,00.000365600000,  -0.00280,
,,,00.000366000000,   0.00240,
,,,00.000366400000,   0.00000,
,,,00.000366800000,   0.00640,
,,,00.000367200000,  -0.00160,
,,,00.000367600000,   0.00000,
,,,00.000368000000,  -0.00240,
,,,00.000368400000,  -0.00320,
,,,00.000368800000,   0.00320,
,,,00.000369200000,  -0.00120,
,,,00.000369600000,   0.00480,
,,,00.000370000000,  -0.00440,
,,,00.000370400000,  -0.00080,
,,,00.000370800000,   0.00160,
,,,00.000371200000,   0.00120,
,,,00.000371600000,   0.00240,
,,,00.000372000000,  -0.00080,
,,,00.000372400000,   0.00160,
,,,00.000372800000,  -0.00400,
,,,00.000373200000,  -0.00200,
,,,00.000373600000,   0.00160,
,,,00.000374000000,   0.00160,
,,,00.000374400000,   0.00480,
,,,00.000374800000,  -0.00240,
,,,00.000375200000,   0.00080,
,,,00.000375600000,  -0.00080,
